
============================================================================
Subject: [Python-Dev] OT: PHB
Post Count: 1
Norm Emergent Posts: 0
Weight: 0.0


----------------------------------------
Subject:
[Python-Dev] OT: PHB
----------------------------------------
Author: Steve Holde
Attributes: []Content: 
On 8/5/2010 8:12 AM, Oleg Broytman wrote:
I was simply trying to avoid becoming "The Python PHB" in the folklore.
Sadly I see it is now inevitable - thanks, Georg ;-)

regards
 Steve
-- 
Steve Holden           +1 571 484 6266   +1 800 494 3119
DjangoCon US September 7-9, 2010    http://djangocon.us/
See Python Video!       http://python.mirocommunity.org/
Holden Web LLC                 http://www.holdenweb.com/


