
============================================================================
Subject: [Python-Dev] r84447 - in python/branches/py3k:
 Lib/test/test_set.py Objects/setobject.c
Post Count: 1
Norm Emergent Posts: 0
Weight: 0.0


----------------------------------------
Subject:
[Python-Dev] r84447 - in python/branches/py3k:
 Lib/test/test_set.py Objects/setobject.c
----------------------------------------
Author: Antoine Pitro
Attributes: []Content: 
On Fri,  3 Sep 2010 12:00:51 +0200 (CEST)
raymond.hettinger <python-checkins at python.org> wrote:

You have some misindented code here.

Regards

Antoine.



