
============================================================================
Subject: [Python-Dev] PEP 435 - ref impl disc 2
Post Count: 30
Norm Emergent Posts: 0
Weight: 0.0


----------------------------------------
Subject:
[Python-Dev] PEP 435 - ref impl disc 2
----------------------------------------
Author: Glenn Linderma
Attributes: []Content: 
So I have a class based on Nick's Named Values, that has been extended 
to propagate names into expressions, so that if you have named values  
'x' and 'y', when you   x + y, the result is a named value whose name is 
'(x + y)'.

Seems pretty awkward to integrate this with Enum. Maybe I'm missing 
something.  Here's carved down code with just one operator defined for 
brevity.  The third item from each print statement should be the same, 
as far as I understand... but isn't.

class NamedInt( int ):
     _count = 0
     def __new__( cls, *args, **kwds ):
         name, *args = args
         if len( args ) == 0:
             args = [ cls._count ]
             cls._count += 1
         self = super().__new__( cls, *args, **kwds )
         self._name = name
         return self
     def __init__( self, *args, **kwds ):
         name, *args = args
         super().__init__()
     @property
     def __name__( self ):
         return self._name
     def __repr__( self ):
         # repr() is updated to include the name and type info
         return "{}({!r}, {})".format(type(self).__name__,
                                      self.__name__,
                                      super().__repr__())
     def __str__( self ):
         # str() is unchanged, even if it relies on the repr() fallback
         base = super()
         base_str = base.__str__
         if base_str.__objclass__ is object:
             return base.__repr__()
         return base_str()

     # for simplicity, we only define one operator that propagates 
expressions
     def __add__(self, other):
         temp = int( self ) + int( other )
         if isinstance( self, NamedInt ) and isinstance( other, NamedInt ):
             return NamedInt(
                 '({0} + {1})'.format(self.__name__, other.__name__),
                 temp )
         else:
             return temp

x = NamedInt('the-x', 1 )
y = NamedInt('the-y', 2 )
# demonstrate that NamedInt propagates the names into an expression syntax
print( repr( x ), repr( y ), repr( x+y ))

from ref435 import Enum

# requires redundant names, but loses names in the expression
class NEI( NamedInt, Enum ):
     x = NamedInt('the-x', 1 )
     y = NamedInt('the-y', 2 )

print( repr( NEI( 1 )), repr( NEI( 2 )), repr( NEI(1) + NEI(2)))

# looks redundant, and still loses the names in the expression
class NEI2( NamedInt, Enum ):
     x = x
     y = y

print( repr( NEI2( x )), repr( NEI2( x )), repr( NEI2(x) + NEI2(y)))



-------------- next part --------------
An HTML attachment was scrubbed...
URL: <http://mail.python.org/pipermail/python-dev/attachments/20130504/31397dda/attachment.html>



----------------------------------------
Subject:
[Python-Dev] PEP 435 - ref impl disc 2
----------------------------------------
Author: Glenn Linderma
Attributes: []Content: 
On 5/4/2013 11:31 PM, Glenn Linderman wrote:

I've tried some more variations, without success:

print( repr( NEI( x )), repr( NEI( y )), repr( NEI( x ) + NEI( y )))
print( repr( NEI.x ), repr( NEI.y ), repr( NEI.x + NEI.y))
print( repr( NEI2.x ), repr( NEI2.y ), repr( NEI2.x + NEI2.y ))

Somehow, the overloading is not finding the __add__ operator in the 
NamedInt class, when the NamedInt's are wrapped in enumerations.
-------------- next part --------------
An HTML attachment was scrubbed...
URL: <http://mail.python.org/pipermail/python-dev/attachments/20130504/8cdb8ab0/attachment.html>



----------------------------------------
Subject:
[Python-Dev] PEP 435 - ref impl disc 2
----------------------------------------
Author: Glenn Linderma
Attributes: []Content: 
On 5/4/2013 11:46 PM, Glenn Linderman wrote:

And I guess I figured it out... NamedInt needs to test

     issubclass( type( self ), NamedInt )

rather than

     isinstance( self, NamedInt )

and likewise for other.  Sorry for the noise, and I finally figured out 
what issubclass is for  :)
-------------- next part --------------
An HTML attachment was scrubbed...
URL: <http://mail.python.org/pipermail/python-dev/attachments/20130505/7ea15f74/attachment.html>



----------------------------------------
Subject:
[Python-Dev] PEP 435 - ref impl disc 2
----------------------------------------
Author: Glenn Linderma
Attributes: []Content: 
On 5/5/2013 12:10 AM, Glenn Linderman wrote:
Sorry, it is getting late here... issubclass was not the cure I thought 
it might be.
-------------- next part --------------
An HTML attachment was scrubbed...
URL: <http://mail.python.org/pipermail/python-dev/attachments/20130505/c71049a2/attachment.html>



----------------------------------------
Subject:
[Python-Dev] PEP 435 - ref impl disc 2
----------------------------------------
Author: Ethan Furma
Attributes: []Content: 
On 05/04/2013 11:31 PM, Glenn Linderman wrote:

Well, my first question would be why are you using named anything in an enumeration, where it's going to get another name?

But setting that aside, if you

--> print(NEI.x.__name__)
'x'

not 'the-x'.

Now let's look for the clues:

class Enum...
     ...
     @StealthProperty
     def name(self):
         return self._name

class NamedInt...
     ...
     def __name__(self):
         return self._name  # look familiar?


When NamedInt goes looking for _name, it finds the one on `x`, not the one on `x.value`.

--
~Ethan~



----------------------------------------
Subject:
[Python-Dev] PEP 435 - ref impl disc 2
----------------------------------------
Author: Glenn Linderma
Attributes: []Content: 
On 5/5/2013 12:21 AM, Ethan Furman wrote:

:)  It is a stepping stone, but consider it a stupid test case for now.


Indeed.

But that isn't the problem of biggest concern.  I changed NamedInt to 
use _intname instead of _name, and it didn't cure the bigger problem.

The bigger problem is that the arithmetic on enumeration items, which 
seems like it should be inherited from NamedInt (and seems to be, 
because the third value from each print is a NamedInt), doesn't pick up 
"x" or "y", nor does it pick up "the-x" or "the-y", but rather, it 
somehow picks up the str of the value.

The third item from each print should be the same in all print 
statements, but the first, that deals with the NamedInt directly, works, 
and the others, that are wrapped in Enum, do not.


-------------- next part --------------
An HTML attachment was scrubbed...
URL: <http://mail.python.org/pipermail/python-dev/attachments/20130505/2578beca/attachment.html>



----------------------------------------
Subject:
[Python-Dev] PEP 435 - ref impl disc 2
----------------------------------------
Author: Nick Coghla
Attributes: []Content: 
On Sun, May 5, 2013 at 5:21 PM, Ethan Furman <ethan at stoneleaf.us> wrote:

There's also the code in enum_type.__call__ that ensures Enum.__repr__
and Enum.__str__ are used in preference to those from the value type.
(Specifically, the code at
https://bitbucket.org/stoneleaf/ref435/src/758d43b9f7327cd61dc2e45050539b6b5db1c4e3/ref435.py?at=default#cl-152
that ignores __repr__ and __str__ from non-Enum types)

I think this needs to be documented more clearly - if you want to keep
a custom __repr__ or __str__ when mixing Enum (or an Enum subclass)
with another type, then you need to explicitly set them in your
subclass. (e.g. in Glenn's case, setting "__repr__ =
NamedValue.__repr__")

I'm OK with magic to get the kind of enum behaviour we want, but I'm
not OK with *black* magic that we don't explain. There should be an
advanced section in the enum docs which explains these edge cases in
the way the enum metaclass interacts with the normal class machinery.

That said, I'm also fairly sure the current code is incorrect: I
believe it does the wrong thing when an Enum subclass further
customises __repr__, __str__ or __new__.

The more reasonable logic to me seems to be to figure out the "first
enum base" and the "first non-enum base" based on:

   enum_bases = [base for base in enum_class.mro() if issubclass(base, Enum)]
   non_enum_bases = [base for base in enum_class.mro() if not
issubclass(base, Enum)]

Then, if the current __new__, __str__ or __repr__ implementation is
the same as that for the first non-enum base, we replace it with the
impl from the first enum base.

Cheers,
Nick.

--
Nick Coghlan   |   ncoghlan at gmail.com   |   Brisbane, Australia



----------------------------------------
Subject:
[Python-Dev] PEP 435 - ref impl disc 2
----------------------------------------
Author: Ethan Furma
Attributes: []Content: 
class NEI( NamedInt, Enum ):
     x = NamedInt('the-x', 1 )
     y = NamedInt('the-y', 2 )
     @property
     def __name__(self):
         return self.value.__name__




----------------------------------------
Subject:
[Python-Dev] PEP 435 - ref impl disc 2
----------------------------------------
Author: Ethan Furma
Attributes: []Content: 
On 05/05/2013 01:08 AM, Nick Coghlan wrote:

Certainly the docs need to be clear about this.  I don't think the PEP needs to be.  (Apologies if you were not 
referring to the PEP.)



Fair point -- working on it.

--
~Ethan~



----------------------------------------
Subject:
[Python-Dev] PEP 435 - ref impl disc 2
----------------------------------------
Author: Glenn Linderma
Attributes: []Content: 
On 5/5/2013 6:07 AM, Ethan Furman wrote:

This cured it, thank you.  But I really still don't understand why the 
numbers showed up as names... seems to me that either the name of the 
enumeration member, or the name of the NamedInt should have showed up, 
without this property definition.

The PEP is the only documentation I had, other than the reference 
implementation, but I can't say I fully understand the reference 
implementation, not having dealt with metaclass much. Hopefully the 
documentation will explain all the incantations necessary to make things 
work in an expected manner. I guess I don't understand why Enum can't 
wrap the __str__ and __repr__ of the type of the mixed class, instead of 
replacing it, and then forcing overrides in subclasses.

But empirically, it didn't seem to be __str__ and __repr__ that caused 
the visible problem, it was __name__. So you asked why would I want to 
put a named object as the value of something else with a name... and 
that is a fair question... really I don't... but I see one of the 
beneficial uses of Enum being collecting flags values together, and 
constructing a flag that is useful for debugging (has a name or 
expression telling what the values are).  So while the PEP thinks 
IntEnum is an odd case, I think it is important. And since IntEnum loses 
its name when included in an expression, I was trying to marry it to 
NamedInt to fill the gap.

So you asked why would I want to put a named object as the value of 
something else with a name... maybe Enum should make provision for 
that... if the primary type ( Int for IntEnum, NamedInt for 
NamedIntEnum) happens to have a __name__ property, maybe the name of 
enumeration members should be passed to the constructor for the 
members... in other words,

class NIE( NamedInt, Enum ):
         x = 1
         y = 2

could construct enumeration members x and y whose values are 
NamedInt('x', 1) and
NamedInt('y', 2)...
-------------- next part --------------
An HTML attachment was scrubbed...
URL: <http://mail.python.org/pipermail/python-dev/attachments/20130505/26566a1e/attachment.html>



----------------------------------------
Subject:
[Python-Dev] PEP 435 - ref impl disc 2
----------------------------------------
Author: Nick Coghla
Attributes: []Content: 
On Mon, May 6, 2013 at 8:57 AM, Glenn Linderman <v+python at g.nevcal.com> wrote:

I think there comes a point where "subclass the metaclass" is the
right answer to "how do I do X with this type?". I believe making two
different kinds of value labelling mechanisms play nice is such a case
:)

Abstract Base Classes were the first real example of metaclass magic
in the standard library, and they avoided many of the confusing
aspects of metaclass magic by banning instantiation - once you get to
a concrete subclass, instances behave pretty much like any other
instance, even though type(type(obj)) is abc.ABCMeta rather than type:

...     def __hash__(self): return 0
...
<class 'abc.ABCMeta'>
<class '__main__.Example'>
<class 'abc.ABCMeta'>

Enumerations will only be the second standard library instance of
using metaclasses to create classes and objects that behave
substantially differently from conventional ones that use type as the
metaclass. The difference in this case relative to ABCs is that more
of the behavioural changes are visible on the instances.

This is *not* a bad thing (this is exactly what the metaclass
machinery is designed to enable), but it does mean we're going to have
to up our game in terms of documenting some of the consequences (as
Ethan noted, this doesn't need to go into the PEP, since that's aimed
at convincing people like Guido that already understand this stuff -
it's the enum module documentation, and potentially the language
reference, that is going to need enhancement). "Here's the section on
metaclasses in the language reference, figure out the consequences for
yourselves" is a defensible situation when we're providing metaclasses
primarily as a toolkit for third party frameworks, but a standard
library module that exploits them the way the enum module does places
additional obligations on us. The upside is that the very presence of
the enum module provides a concrete non-trivial example for us to lean
on in those explanations, rather than having to come up with toy
examples :)

Cheers,
Nick.

--
Nick Coghlan   |   ncoghlan at gmail.com   |   Brisbane, Australia



----------------------------------------
Subject:
[Python-Dev] PEP 435 - ref impl disc 2
----------------------------------------
Author: Glenn Linderma
Attributes: []Content: 
On 5/5/2013 7:14 PM, Nick Coghlan wrote:

Could be.

Could be that sufficient operators added to an IntEnum subclass might 
work too. Although it might be unexpected that adding two enumeration 
members would produce a NamedInt :)  But of course, if the enumeration 
were defined by NamedIntEnum, it might be less surprising.

On the other hand, if Enum is in stdlib, and lots of flags parameters 
get defined with Enum, then it would be a pain in the neck to redefine 
them with NamedIntEnum, so that debugging of flag combinations is 
easier. There are enough flag parameters in the stdlib APIs to make me 
think this would be a deficiency.

Sadly, once the Enums are defined, there is to be no way to subclass 
them to add functionality, like producing a NamedInt result from 
operations on them.
-------------- next part --------------
An HTML attachment was scrubbed...
URL: <http://mail.python.org/pipermail/python-dev/attachments/20130505/690aa71b/attachment.html>



----------------------------------------
Subject:
[Python-Dev] PEP 435 - ref impl disc 2
----------------------------------------
Author: Nick Coghla
Attributes: []Content: 
On Mon, May 6, 2013 at 12:46 PM, Glenn Linderman <v+python at g.nevcal.com> wrote:

That rule is enforced by the metaclass, so... ;)

Custom metaclasses are amazingly powerful, the trick is to deploy
their power judiciously, such that people can use the custom classes
associated with them without getting confused. SQL Alchemy, Django and
other frameworks do this quite well, but it *does* create subsections
of the type hierarchy which don't play well with others (for example,
having the same class be both an SQL Alchemy Table definition and a
Django Model definition probably isn't going to work).

Enums are the same - they carve out a subtree in the type hierarchy
that *doesn't* behave the same as the standard tree anchored directly
on type. This *is* going to cause conflicts with meta-tools that only
handle ordinary types - the trick is that the cause of the problem (a
custom metaclass) is also the solution (a custom metaclass derived
from enum.enum_type).

Cheers,
Nick.

--
Nick Coghlan   |   ncoghlan at gmail.com   |   Brisbane, Australia



----------------------------------------
Subject:
[Python-Dev] PEP 435 - ref impl disc 2
----------------------------------------
Author: Glenn Linderma
Attributes: []Content: 
On 5/5/2013 9:51 PM, Nick Coghlan wrote:

Sure.  But:

stdlib contains:
   Enum (with subclass prohibiting metaclass)
   APIs with flags
   (assumed, in time) Enums defining the flag values (complete with 
enforcement by the metaclass)

user code:
   have to recreate all the Enums defining flag values using custom 
enum_type metaclass.

Seems like FlagEnum might be a a good thing to invent before 
(re-)defining Enums for all the flag values (that's what I'm after in 
combining NamedInt and Enum, really).

I suppose that a mere mortal could simply define a subclass of int that 
keeps track of expressions during arithmetic... using __name__ 
attributes of its operands if they exist, and as long as the mere mortal 
remembered to use it, it would achieve the same goal.  But having that 
built in with the flag value definitions would assure that it was 
available for everyone, all the time.
-------------- next part --------------
An HTML attachment was scrubbed...
URL: <http://mail.python.org/pipermail/python-dev/attachments/20130505/7c43df42/attachment.html>



----------------------------------------
Subject:
[Python-Dev] PEP 435 - ref impl disc 2
----------------------------------------
Author: Barry Warsa
Attributes: []Content: 
On May 06, 2013, at 02:51 PM, Nick Coghlan wrote:


Agreed.  When the time is right, I think we should consider implementation
details that allow for useful flexibility.  An example would be the
prohibition on extension through subclassing.  I'm perfectly willing to accept
that as the standard behavior on stdlib Enums, but I'd like to be able to
override this with my own custom metaclass subclass.  I think it could be done
quite easily with the right refactoring of the implementation, although there
would be some discussion around what is blessed private API and what is
YOYO[1] API.

-Barry

[1] You're own your own.



----------------------------------------
Subject:
[Python-Dev] PEP 435 - ref impl disc 2
----------------------------------------
Author: Ethan Furma
Attributes: []Content: 
On 05/05/2013 01:01 AM, Glenn Linderman wrote:

Indeed, the bigger problem is that we ended up have an (NamedInt, Enum) wrapping a NamedInt, so we had both 
NEI.x._intname /and/ NEI.x.value._intname, and it was just one big mess.

But I think it is solved.  Try the new code.  Here's what your example should look like:

     class NamedInt( int ):
         def __new__( cls, *args, **kwds ):
             _args = args
             name, *args = args
             if len( args ) == 0:
                 raise TypeError("name and value must be specified")
             self = int.__new__( cls, *args, **kwds )
             self._intname = name
             return self
         @property
         def __name__( self ):
             return self._intname
         def __repr__( self ):
             # repr() is updated to include the name and type info
             return "{}({!r}, {})".format(type(self).__name__,
                                          self.__name__,
                                          int.__repr__(self))
         def __str__( self ):
             # str() is unchanged, even if it relies on the repr() fallback
             base = int
             base_str = base.__str__
             if base_str.__objclass__ is object:
                 return base.__repr__(self)
             return base_str(self)
         # for testing, we only define one operator that propagates expressions
         def __add__(self, other):
             temp = int( self ) + int( other )
             if isinstance( self, NamedInt ) and isinstance( other, NamedInt ):
                 return NamedInt(
                     '({0} + {1})'.format(self.__name__, other.__name__),
                     temp )
             else:
                 return temp

     class NEI( NamedInt, Enum ):
         x = ('the-x', 1 )
         y = ('the-y', 2 )

     NEI.x + NEI.y

--
~Ethan~



----------------------------------------
Subject:
[Python-Dev] PEP 435 - ref impl disc 2
----------------------------------------
Author: Glenn Linderma
Attributes: []Content: 
On 5/6/2013 6:26 PM, Ethan Furman wrote:

OK. I notice you changed some super()s to specific int calls; I think I 
understand why, having recently reread about the specific problem that 
super() solves regarding diamond inheritance, and with that 
understanding, it is clear that super() is not always the right thing to 
use, particularly when unrelated classes may still have particular 
methods with name clashes (dunder methods would commonly have the same 
names in unrelated classes).  So my use of super likely contributed to 
the multiple wrappings that you allude to above, although I haven't 
(yet) tried to figure out the exact details of how that happened.


I had tried this sort of constructor, thinking it should work, but 
couldn't tell that it helped or hindered, but it probably took 
eliminating the super() problem earlier, and likely your preservation of 
__new__ in your ref435 changes, to enable this syntax to do what I 
expected it might.  This certainly does allow the name definitions to be 
better grouped, even though still somewhat redundant.

It may take a subclass of the enum_type, as Nick was suggesting, to make 
the NamedInt and the enumeration member actually share a single name... 
but this (after fleshing out NamedInt with more operators) would be a 
functional method of producing enumerations for the various flag 
parameters in the Python API (that are mostly inherited from wrapped C 
APIs, I suppose... at least, I haven't found a need or benefit of 
creating flag parameters in new Python APIs that I have created).


And this works as expected, now. Can't say I still fully understand the 
changes, but the test case works, and the constructors for the NamedInt 
inside the NEI class works, so this is pretty much what I was hoping to 
be able when I started down this path... but since it found some issues 
that you were able to fix in ref435, I guess I wasn't totally wasting 
your time presenting the issue. Thanks for investigating, and fixing, 
rather than blowing it off, even given my amateurish presentation.

And I should have called this NIE, not NEI, because it was intended to 
stand for NamedIntEnum... but it is just a name, so doesn't affect the 
functionality.


N.B.  In your latest ref435.py code, line 105, should be "An Enum class 
_is_ final..." rather than "in".
-------------- next part --------------
An HTML attachment was scrubbed...
URL: <http://mail.python.org/pipermail/python-dev/attachments/20130506/e02045cf/attachment-0001.html>



----------------------------------------
Subject:
[Python-Dev] PEP 435 - ref impl disc 2
----------------------------------------
Author: Ethan Furma
Attributes: []Content: 
On 05/06/2013 08:35 PM, Glenn Linderman wrote:

Thanks, fixed.

--
~Ethan~



----------------------------------------
Subject:
[Python-Dev] PEP 435 - ref impl disc 2
----------------------------------------
Author: Glenn Linderma
Attributes: []Content: 
So, thanks everyone for helping me understand the metaclass issues, and 
helping fix my code and the reference implementation, so that I got a 
working workaround for enumerations.

Twiddling some more.... newly using hg and bitbucket... learned a lot 
today... at <https://bitbucket.org/v_python/ref435a/src>

Premise: For API parameters that are bitfields, it would be nice to have 
an Enum-type class that tracks the calculations done with the named 
values to create bit masks.

Currently available: Enum (or IntEnum) that can group the collection of 
named bit-field values into values of a single and unique type, but 
loses the names during calculations.

Just written: a class IntET (for "int expression tracker" which has an 
expression name as well as a value.  As a side effect, this could be 
used to track effective calculations of integers for debugging, because 
that is the general mechanism needed to track combined flag values, also 
for debug reporting.

So it is quite possible to marry the two, as Ethan helped me figure out 
using an earlier NamedInt class:

class NIE( IntET, Enum ):
     x = ('NIE.x', 1)
     y = ('NIE.y', 2)
     z = ('NIE.z', 4)

and then expressions involving members of NIE (and even associated 
integers) will be tracked... see demo1.py.

But the last few lines of demo1 demonstrate that NIE doesn't like, 
somehow, remember that its values, deep down under the covers, are 
really int.  And doesn't even like them when they are wrapped into IntET 
objects.  This may or may not be a bug in the current Enum implementation.

It is cumbersome to specify redundant names for the enumeration members 
and the underlying IntET separately, however.

Turns out that adding one line to ref435 (which I did in ref435a) will 
allow (nay, require) that base types for these modified Enums must have 
names, which must be supplied as the first parameter to their 
constructor.  This also works around whatever problem "real" Enum has 
with using named items internally, as demonstrated by demo2.py 
(reproduced in part here):

class NIE( IntET, Enum ):
     x = 1
     y = 2
     z = 4

print( repr( NIE.x + NIE.y ))
IntET('(NIE.x + NIE.y)', 3)

So the questions are:
1) Is there a bug in ref435 Enum that makes demo1 report errors instead 
of those lines working?
2) Is something like demo2 interesting to anyone but me? Of course, I 
think it would be great for reporting flag values using names rather 
than a number representing combined bit fields.
3) I don't see a way to subclass the ref435 EnumMeta except by replacing 
the whole __new__ method... does this mechanism warrant a slight 
refactoring of EnumMeta to make this mechanism easier to subclass with 
less code redundancy?
4) Or is it simple enough and useful enough to somehow make it a feature 
of EnumMeta, enabled by a keyword parameter?  Or one _could_ detect the 
existence of a __name__ property on the first base type, and key off of 
that, but that may sometimes be surprising (of course, that is what 
documentation is for: to explain away the surprises people get when they 
don't read it).
5) All this is based on "IntET"... which likely suffices for API flags 
parameters... but when I got to __truediv__ and __rtruediv__, which 
don't return int, then I started wondering how to write a vanilla ET 
class that inherits from "number" instead of "int" or "float"? One 
could, of course, make cooperating classes FloatET and DecimalET .... is 
this a language limitation, or is there more documentation I haven't 
read? :)   (I did read footnote [1] of 
<http://docs.python.org/3/reference/datamodel.html#emulating-numeric-types>, 
and trembled.)

Probably some of these questions should be on stackoverflow or python 
ideas, but it is certainly an outgrowth of the Enum PEP, and personally, 
I'd hate to see flag APIs converted to Enum without the ability to track 
combinations of them... so I hope that justifies parts of this 
discussion continuing here. I'm happy to take pieces to other places, if 
so directed.
-------------- next part --------------
An HTML attachment was scrubbed...
URL: <http://mail.python.org/pipermail/python-dev/attachments/20130510/8155a0ce/attachment.html>



----------------------------------------
Subject:
[Python-Dev] PEP 435 - ref impl disc 2
----------------------------------------
Author: Ethan Furma
Attributes: []Content: 
On 05/10/2013 10:15 PM, Glenn Linderman wrote:

You're right, sort of.  ;)

If you do

   print( repr( NIE1.x.value ))

you'll see

   ('NIE1.x', 1)

In other words, the value of NEI.x is `('NEI1.x', 1)` and that is what you would have to pass back into NEI to get the 
enum member.

As an aside, I suspect you are doing this the hard way.  Perhaps writing your own __new__ in NIE will have better 
results (I'd try, but I gotta get some sleep! ;) .  Oh, newest code posted.

--
~Ethan~



----------------------------------------
Subject:
[Python-Dev] PEP 435 - ref impl disc 2
----------------------------------------
Author: Glenn Linderma
Attributes: []Content: 
On 5/10/2013 11:02 PM, Ethan Furman wrote:

Ah! But the value of NIE.x should be IntET('NIE.x', 1), no? So Enum is 
presently saving the constructor parameters as the value, rather than 
the constructed object? So for Enums of builtin types, there is little 
difference, but for complex types (as opposed to complex numbers), there 
is a difference, and I guess I ran into the consequences of that difference.


NIE.__new__ wouldn't have the name available, unless it is passed in. So 
it seems to me that Enum (or Enum+) has to pass in the parameter... in 
which case NIE.__new__ can be pretty ordinary.

Other implementation strategies that occurred to me... maybe I'll try 
them all, if I have time... but time looks to get scarcer soon...

* I'm playing with adding another keyword parameter to Enum, but it is 
presently giving me an error about unknown keyword parameter passed to 
__prepare__ even though I added **kwds to the list of its parameters. 
I'll learn something by doing this.

* Implement a subclass of Enum that has a bunch of operator tracking 
methods like IntET. However, the results of arithmetic operations 
couldn't add a new enumeration member (legally), so some other type 
would still have to exist... and it would also have to have those 
operation tracking methods.

* Implement a subclass of EnumMeta that installs all the operator 
tracking methods. Same legal issue.

* Do one of the above, but allow new calculated members to exist, 
although perhaps not in the initial, iterable set. Might have to call it 
something besides Enum to obey the proclamations :) FlagBits, maybe.  
But it could use much the same technology as Enum.


Thanks for the response... it cleared up the demo1 mystery, anyway.


That'll give me some practice pulling from your repository into mine :)
-------------- next part --------------
An HTML attachment was scrubbed...
URL: <http://mail.python.org/pipermail/python-dev/attachments/20130511/a37cd90f/attachment.html>



----------------------------------------
Subject:
[Python-Dev] PEP 435 - ref impl disc 2
----------------------------------------
Author: Glenn Linderma
Attributes: []Content: 
On 5/11/2013 12:11 AM, Glenn Linderman wrote:

OK, I figured out the error was because __prepare__ didn't have a **kwds 
parameters, but then got a similar one regarding __init__ ? but EnumMeta 
doesn't even have an __init__ so I guess it was using type.__init__, but 
then I wondered if type.__init__ even does anything, because when I 
added __init__ to (my modified ref435a) EnumMeta, it didn't seem to 
matter if my __init__ did nothing, called super().__init__, or called 
type.__init__.  Anyway, defining one seems to get past the errors, and 
then the keyword can work.

So compare your ref435.py and my ref435a.py at 
<https://bitbucket.org/v_python/ref435a/src> to see the code required to 
support a keyword parameter that would expect a base type containing a 
name parameter to its __new__ and __init__, by providing the 
module-qualified name as that parameter.

Would this be a controversial enhancement to EnumMeta?  Together with my 
flags.py at the same link, it would enable definitions of enumeration 
values which have names, and which names could be reported in 
exceptions.... see demo3.py at the same link.

I suppose it might also be good to validate that no unexpected keyword 
parameters are passed in, rather than just ignoring them, as my code 
presently does? Not sure what the general thinking is regarding such 
parameters in such usages; it could be that some mixin class might want 
to define some keyword parameters too, so ignoring them seems a more 
flexible option.




-------------- next part --------------
An HTML attachment was scrubbed...
URL: <http://mail.python.org/pipermail/python-dev/attachments/20130511/d353c65b/attachment.html>



----------------------------------------
Subject:
[Python-Dev] PEP 435 - ref impl disc 2
----------------------------------------
Author: Glenn Linderma
Attributes: []Content: 
On 5/11/2013 12:11 AM, Glenn Linderman wrote:

Well, I had to bring your changes to my local repository, and then push 
them up to my bitbucket repo... not sure if there is a way to merge from 
your bitbucket repo to mine directly... I couldn't find it, if there is.
-------------- next part --------------
An HTML attachment was scrubbed...
URL: <http://mail.python.org/pipermail/python-dev/attachments/20130511/db2de91c/attachment.html>



----------------------------------------
Subject:
[Python-Dev] PEP 435 - ref impl disc 2
----------------------------------------
Author: Ethan Furma
Attributes: []Content: 
On 05/10/2013 10:15 PM, Glenn Linderman wrote:

[demo1.py excerpt]
     print( repr( NIE1( 1 ) + NIE1(2)))
     print( repr( NIE1( IntET('NIE1.x', 1 )) + NIE1(2)))



Nope.


No idea.  ;)


I've broken it down to make subclassing easier.


Probably not.


Sounds like a fun project (for some value of fun ;)


Okay, sorry for the long delay.

What it comes down to is if you want to marry two complex types together, you may have to be the counselor as well. ;)

Here's your code, revamped.  I did make a slight change in the meta --  I moved the name assignment above the __init__ 
call so it's available in __init__.

--8<--------------------------------------------------------
from ref435 import Enum
from flags import IntET

class NIE1( IntET, Enum ):
     x =  1
     y =  2
     z =  4
     def __new__(cls, value):
         member = IntET.__new__(cls, 'temp', value)
         member._value = value
         return member
     def __init__(self, value):
         self._etname = self._name

print( repr( NIE1.x.value ))
print( repr( NIE1.x + NIE1.y ))
print( repr( NIE1.x + ~ NIE1.y))
print( repr( NIE1.x + ~ 2 ))
print( repr( NIE1.z * 3 ))


print( repr( NIE1( 1 ) + NIE1(2)))
print( repr( NIE1( IntET('NIE1.x', 1 )) + NIE1(2)))
--8<--------------------------------------------------------

and my results:

1
IntET('(x + y)', 3)
IntET('(x + ~y)', -2)
IntET('(x + -3)', -2)
IntET('(z * 3)', 12)
IntET('(x + y)', 3)
IntET('(x + y)', 3)


Oh, and if you really wanted the 'NEI' in the _etname, change the name assignment:

     self._etname = 'NIE.' + self._name

--
~Ethan~



----------------------------------------
Subject:
[Python-Dev] PEP 435 - ref impl disc 2
----------------------------------------
Author: Ethan Furma
Attributes: []Content: 
On 05/13/2013 07:36 PM, Ethan Furman wrote:


Forget to mention the good part -- in the custom __new__ you are able to set the value to whatever you want (not a big 
deal in this case, but if you had several parameters going in you could still make _value be a single, simple int).

--
~Ethan~



----------------------------------------
Subject:
[Python-Dev] PEP 435 - ref impl disc 2
----------------------------------------
Author: Glenn Linderma
Attributes: []Content: 
On 5/13/2013 7:36 PM, Ethan Furman wrote:

Well, if it isn't a bug, it will be interesting to read the 
documentation that explains the behavior, when the documentation is written:

The "obvious" documentation would be that Enum names values of any type, 
particularly the first type in the multiple-inheritance list. The values 
assigned to the enumeration members are used as parameters to the 
constructor of that first type, but the value of the enumeration member 
itself is an item of the type, created by the constructor.

The __call__ syntax  [ EnumDerivation( value ) ] looks up enumeration 
members by value.

The obvious documentation would stop there.  But if demo1 doesn't 
demonstrate a bug, it would have to continue, saying something like:

However, if you have a complex type, you can't look up by value, but 
rather have to resupply the constructor parameters used to create the 
item. This means that for simple types

EnumDerivation( EnumerationMember.value ) is EnumerationMember

but that doesn't hold for complex types.  I think it should.



Thanks... I'll take a look, eventually, but I'll be offline until next week.


Not sure I'll get there, for a few years... such might be useful in 
certain debugging scenarios, but not sure it is useful enough to 
implement, given the footnote, except, perhaps, to truly become an 
expert in the Python object model.


:)  I assume by "counselor" you mean the code for __new__ and __init__ 
below, which, when I get a chance to understand them, will probably 
explain some of your earlier remarks about it maybe being easier to 
implement in such a manner.  Of course, I don't particularly want to 
marry the types, just have XxxEnum work for IntET as well as it does for 
int... I was bumping into name conflicts between Nick's implementation 
and yours, that weren't immediately obvious to me, because I haven't 
done multiple inheritance much ? Enum is dragging me into that and 
metaclasses, though, which is a good thing for me, likely.

The one piece of "marriage" that is interesting is to avoid specifying 
the name twice, and it seems your code


That's handy, thanks.


I'd expect  NIE1.x.value  to be  IntET('x', 1)  but I'll have to look 
more carefully at what you've done, when I have some time next week. You 
may have made some "simplifying assumptions", and things _should_ be as 
simple as possible, but no simpler... especially not if it leads to 
unexpected results.


Sure.  I did, because one problem that might arise is the combination of 
NIE-style enums from different enumerations... not prohibited for 
IntEnum or NIE, because it gets converted to the base type (int or 
IntET, respectively).  But if someone accidentally combines an 
enumeration member from NIE1 and an enumeration member from NIE2, and it 
has the same member name, the expression could "look right" without the 
class name included.  So you see, including the class name was not just 
a whim, but the result of analyzing potential error cases.


This will take more thought than I have time for tonight, also. Right 
now, I think I want the value for NIE.x to be IntET('NIE.x', 1 ).  And 
your code isn't achieving that at present, but maybe I just need to 
tweak __new__ and then can... and maybe it cures the discrepancy in 
expectations mentioned earlier too...

On the other hand, when I think about it more, maybe I'll see what you 
are suggesting as a better path, for some reason.  But I think it is the 
case at present, that what you think I want, is different than what I 
think I want :)
-------------- next part --------------
An HTML attachment was scrubbed...
URL: <http://mail.python.org/pipermail/python-dev/attachments/20130513/34b79b81/attachment.html>



----------------------------------------
Subject:
[Python-Dev] PEP 435 - ref impl disc 2
----------------------------------------
Author: Ethan Furma
Attributes: []Content: 
On 05/13/2013 10:01 PM, Glenn Linderman wrote:



Thank you for being persistent.  You are correct, the value should be an IntET (at least, with a custom __new__ ;).

I'll look into it.

--
~Ethan~



----------------------------------------
Subject:
[Python-Dev] PEP 435 - ref impl disc 2
----------------------------------------
Author: Ethan Furma
Attributes: []Content: 
On 05/13/2013 11:11 PM, Ethan Furman wrote:

You know, when you look at something you wrote the night before, and have no idea what you were trying to say, you know 
you were tired.  Ignore my parenthetical remark.

Okay, the value is now an IntET, as expected and appropriate.

--
~Ethan~



----------------------------------------
Subject:
[Python-Dev] PEP 435 - ref impl disc 2
----------------------------------------
Author: Glenn Linderma
Attributes: []Content: 
On 5/14/2013 7:16 AM, Ethan Furman wrote:

Gladly. And we now have several more days to have forgotten what we were 
doing/talking about...


Maybe.

I upgraded my ref435.py from yours at 
https://bitbucket.org/stoneleaf/ref435 (and your test file there 
references enum.py which is not there).

My demo1.py still doesn't work.  The first 4 lines are fine, but not the 
last two.  I still cannot do a lookup (via __call__ syntax) by either 
int or IntET value.

You have my old misnamed NEI class in your test file now, and the tests 
you use with it work... but you don't have a lookup test.  My demo1 
does, and that fails.

After instrumenting Enum.__new__ it seems that the member.value is still 
the constructor parameters...

Maybe I picked up the wrong version of your code?

Oh and demo1.py has leftover __new__ and __init__ definitions for NIE, 
modeled after your earlier suggestions. Leaving them in causes 
everything to be named 'temp'. Taking them out makes things not work 
differently.



-------------- next part --------------
An HTML attachment was scrubbed...
URL: <http://mail.python.org/pipermail/python-dev/attachments/20130520/ce30ed9b/attachment.html>



----------------------------------------
Subject:
[Python-Dev] PEP 435 - ref impl disc 2
----------------------------------------
Author: Glenn Linderma
Attributes: []Content: 
On 5/20/2013 11:44 PM, Glenn Linderman wrote:

Oh, it was an hg misunderstanding (hg newbie here)... I wasn't getting 
the latest code.  Things are working much better now.

I notice, however, with my latest code at 
https://v_python at bitbucket.org/v_python/ref435a that demo1, which has an 
explicit duplicate name, and no __new__  or __init__ code, has a .value 
which is actually a IntET (as shown by the last print of the repr of the 
value).  However, demo2, which attempts to "marry" the classes and avoid 
the duplicate name specifications, has a .value which is an "unnamed" 
IntET, whereas one would expect it to be named.

Noticing the changes you made, I think it is a result of line 177 in 
ref435.py where you actually instantiate a 2nd copy of IntET?using the 
same parameters, but a separate instantiation from the 
"married-with-Enum" copy?to use as the value.  I guess there is no way 
to "extract" the IntET from the "married-with-Enum" copy, to use as the 
value?  So then, this is good, but not quite good enough: the 2nd copy 
of the IntET should have the same name as the "married-with-Enum" copy.

Now in demo4.py I figured out how I could fix that, since the second 
copy is (currently) made before the __init__ call for the 
"married-with-Enum" copy, and stored in an accessible place.

On the other hand, it is a bit of a surprise to have to do that, and it 
would also be a bit of a surprise for classes that have class state that 
affects the instantiation of instances... That might just mean that some 
classes can't be mixed with Enum, but I suppose known restrictions 
and/or side effects should be documented.

As an example of this, I tried to resurrect your AutoNumber from your 
message of 6 May 2013 19:29 -0700 in the "PEP 435: initial values must 
be specified? Yes" thread, but couldn't, apparently due to changes in 
the implementation of ref435, but after fixing those problems, I still 
got an error where it demanded a parameter to new, even though one 
shouldn't be needed in that case.
-------------- next part --------------
An HTML attachment was scrubbed...
URL: <http://mail.python.org/pipermail/python-dev/attachments/20130521/4fc1c065/attachment.html>

