
============================================================================
Subject: [Python-Dev] cpython: Optimize findchar() for
	PyUnicode_1BYTE_KIND: use memchr and memrchr
Post Count: 1
Norm Emergent Posts: 0
Weight: 0.0


----------------------------------------
Subject:
[Python-Dev] cpython: Optimize findchar() for
	PyUnicode_1BYTE_KIND: use memchr and memrchr
----------------------------------------
Author: Victor Stinne
Attributes: []Content: 
Le jeudi 13 octobre 2011 01:27:32, Antoine Pitrou a ?crit :

Hum, maybe, but not easily: functions have different prototypes and manipulate 
different types.

Victor

