
============================================================================
Subject: [Python-Dev] =?utf-8?b?5Zue5aSN77yaICB3aGVyZSBpcyB0aGUgcHl0aG9u?=
 =?utf-8?q?_=22import=22_implemented?=
Post Count: 1
Norm Emergent Posts: 0
Weight: 0.0


----------------------------------------
Subject:
[Python-Dev] =?utf-8?b?5Zue5aSN77yaICB3aGVyZSBpcyB0aGUgcHl0aG9u?=
 =?utf-8?q?_=22import=22_implemented?=
----------------------------------------
Author: =?utf-8?B?SXNtbA==?
Attributes: []Content: 
An HTML attachment was scrubbed...
URL: <http://mail.python.org/pipermail/python-dev/attachments/20121211/c674605a/attachment.html>

