
============================================================================
Subject: [Python-Dev] cpython: use assertWarns instead of check_warnings
	- Issue14341
Post Count: 1
Norm Emergent Posts: 0
Weight: 0.0


----------------------------------------
Subject:
[Python-Dev] cpython: use assertWarns instead of check_warnings
	- Issue14341
----------------------------------------
Author: Georg Brand
Attributes: []Content: 
On 11.04.2012 17:06, senthil.kumaran wrote:

There's no need for adding the "as cm" if you don't need the cm object.

Georg


