
============================================================================
Subject: [Python-Dev]
	=?utf-8?b?RGVjaW1hbCAmYW1wO2FtcDsgYW1wOyBsdDsgLSZh?=
	=?utf-8?q?mp=3Bamp=3B_amp=3B_gt=3B=09float_comparisons_in_py3k=2E?=
Post Count: 1
Norm Emergent Posts: 0
Weight: 0.0


----------------------------------------
Subject:
[Python-Dev]
	=?utf-8?b?RGVjaW1hbCAmYW1wO2FtcDsgYW1wOyBsdDsgLSZh?=
	=?utf-8?q?mp=3Bamp=3B_amp=3B_gt=3B=09float_comparisons_in_py3k=2E?=
----------------------------------------
Author: Antoine Pitro
Attributes: []Content: 
Raymond Hettinger <raymond.hettinger <at> gmail.com> writes:

I still don't follow you. You are saying that an exact conversion is possible,
but don't want it to be done because it is "not as straight-forward"?



