
============================================================================
Subject: [Python-Dev] [Python-checkins] cpython: Document requierements
 of Unicode kinds
Post Count: 1
Norm Emergent Posts: 0
Weight: 0.0


----------------------------------------
Subject:
[Python-Dev] [Python-checkins] cpython: Document requierements
 of Unicode kinds
----------------------------------------
Author: Terry Reed
Attributes: []Content: 
On 10/5/2011 7:53 PM, Victor Stinner wrote:

yes


Glad I could help with that, even though not the code details.

-- 
Terry Jan Reedy



