
============================================================================
Subject: [Python-Dev] [Python-checkins] cpython:
 Enhance	Py_ARRAY_LENGTH(): fail at build time if the argument is not	an
 array
Post Count: 1
Norm Emergent Posts: 0
Weight: 0.0


----------------------------------------
Subject:
[Python-Dev] [Python-checkins] cpython:
 Enhance	Py_ARRAY_LENGTH(): fail at build time if the argument is not	an
 array
----------------------------------------
Author: =?UTF-8?B?Ik1hcnRpbiB2LiBMw7Z3aXMi?
Attributes: []Content: 

I'm -1 on additional header files as well. If no other reasonable place
is found, Python.h is still available.

Regards,
Martin

