
============================================================================
Subject: [Python-Dev]  Let's get rid of unbound methods
Post Count: 1
Norm Emergent Posts: 0
Weight: 0.0


----------------------------------------
Subject:
[Python-Dev]  Let's get rid of unbound methods
----------------------------------------
Author: =?gb2312?B?zL3H5w==?
Attributes: []Content: 
 

-------------- next part --------------
An HTML attachment was scrubbed...
URL: <http://mail.python.org/pipermail/python-dev/attachments/20130604/c09e13ee/attachment.html>

