
============================================================================
Subject: [Python-Dev] [Python-checkins] pymigr: The peps repo is the
 only other one that	seems relevant
Post Count: 1
Norm Emergent Posts: 0
Weight: 0.0


----------------------------------------
Subject:
[Python-Dev] [Python-checkins] pymigr: The peps repo is the
 only other one that	seems relevant
----------------------------------------
Author: =?UTF-8?B?Ik1hcnRpbiB2LiBMw7Z3aXMi?
Attributes: []Content: 

Actually, the stackless people also requested that their repository
gets converted.

Regards,
Martin

