
============================================================================
Subject: [Python-Dev] [Python-checkins] cpython: Issue #11651: Improve
 Makefile test targets.
Post Count: 2
Norm Emergent Posts: 0
Weight: 0.0


----------------------------------------
Subject:
[Python-Dev] [Python-checkins] cpython: Issue #11651: Improve
 Makefile test targets.
----------------------------------------
Author: Barry Warsa
Attributes: []Content: 
On Jul 31, 2011, at 06:26 PM, Nick Coghlan wrote:


Agreed.  I'd at least like to have seen discussion on python-dev instead of
just in the tracker.  FWIW, I wasn't even aware of this issue.

-Barry
-------------- next part --------------
A non-text attachment was scrubbed...
Name: signature.asc
Type: application/pgp-signature
Size: 836 bytes
Desc: not available
URL: <http://mail.python.org/pipermail/python-dev/attachments/20110731/246803a2/attachment.pgp>



----------------------------------------
Subject:
[Python-Dev] [Python-checkins] cpython: Issue #11651: Improve
 Makefile test targets.
----------------------------------------
Author: Barry Warsa
Attributes: []Content: 
On Jul 31, 2011, at 06:55 AM, Barry Warsaw wrote:


Er, nm.  I need coffee.

-B
-------------- next part --------------
A non-text attachment was scrubbed...
Name: signature.asc
Type: application/pgp-signature
Size: 836 bytes
Desc: not available
URL: <http://mail.python.org/pipermail/python-dev/attachments/20110731/034ab7d2/attachment.pgp>

