
============================================================================
Subject: [Python-Dev] cpython (2.7): - Issue #17086: Backport thepatches
	from the 3.3 branch to cross-build
Post Count: 1
Norm Emergent Posts: 0
Weight: 0.0


----------------------------------------
Subject:
[Python-Dev] cpython (2.7): - Issue #17086: Backport thepatches
	from the 3.3 branch to cross-build
----------------------------------------
Author: a.cavallo at cavallinux.e
Attributes: []Content: 


Btw rpm build and packaging can be done on the suse build service: it is a very
complete (and free) service.
https://build.opensuse.org



