
============================================================================
Subject: [Python-Dev] cpython (3.2): #9200: The str.is* methods now work
 with strings that contain non-BMP
Post Count: 1
Norm Emergent Posts: 0
Weight: 0.0


----------------------------------------
Subject:
[Python-Dev] cpython (3.2): #9200: The str.is* methods now work
 with strings that contain non-BMP
----------------------------------------
Author: Antoine Pitro
Attributes: []Content: 
On Mon, 22 Aug 2011 19:31:32 +0200
ezio.melotti <python-checkins at python.org> wrote:

That's a very cool improvement!

cheers

Antoine.



