
============================================================================
Subject: Re: [Python-Dev] Bloody FAQ (Was: [Python-ideas]
>>         itertools.chunks(iterable, size, fill=None))
>>
Post Count: 3
Norm Emergent Posts: 0
Weight: 0.0


----------------------------------------
Subject:
Re: [Python-Dev] Bloody FAQ (Was: [Python-ideas]
>>         itertools.chunks(iterable, size, fill=None))
>>
----------------------------------------
Author: N/A
Attributes: []Content: >>         <CAPkN8x+A-OYWNLNKDH=
>> 6GnQn+o_Tb3LMnimHYs9zkYmWR1GTgA at mail.gmail.com>
>> Content-Type: text/plain; charset=UTF-8
>>
>> On Thu, Jul 5, 2012 at 7:50 PM, Stefan Behnel <stefan_ml at behnel.de>
>> wrote:
>> > anatoly techtonik, 05.07.2012 15:36:
>> >> On Sun, Jul 1, 2012 at 12:09 AM, Terry Reedy wrote:
>> >>> 

----------------------------------------
Subject:
Re: [Python-Dev] Bloody FAQ (Was: [Python-ideas]
>>         itertools.chunks(iterable, size, fill=None))
>>
----------------------------------------
Author: Was: [Python-ideas]
>>         itertools.chunks(iterable, size, fill=Non
Attributes: []Content: >> Content-Type: text/plain; charset=ISO-8859-1; format=flowed
>>
>> On 05/07/2012 20:41, anatoly techtonik wrote:
>> > On Thu, Jul 5, 2012 at 7:50 PM, Stefan Behnel <stefan_ml at behnel.de>
>> wrote:
>> >> anatoly techtonik, 05.07.2012 15:36:
>> >>> On Sun, Jul 1, 2012 at 12:09 AM, Terry Reedy wrote:
>> >>>>  

----------------------------------------
Subject:
Re: [Python-Dev] Bloody FAQ (Was: [Python-ideas]
>>         itertools.chunks(iterable, size, fill=None))
>>
----------------------------------------
Author: Was: [Python-ideas]
>>         itertools.chunks(iterable, size, fill=Non
Attributes: []Content: >> Content-Type: text/plain; charset=UTF-8
>>
>> anatoly techtonik, 05.07.2012 21:41:
>> > On Thu, Jul 5, 2012 at 7:50 PM, Stefan Behnel wrote:
>> >> anatoly techtonik, 05.07.2012 15:36:
>> >>> On Sun, Jul 1, 2012 at 12:09 AM, Terry Reedy wrote:
>> >>>> 