
============================================================================
Subject: [Python-Dev] PPC Leopard build slave going down for an upgrade
Post Count: 1
Norm Emergent Posts: 0
Weight: 0.0


----------------------------------------
Subject:
[Python-Dev] PPC Leopard build slave going down for an upgrade
----------------------------------------
Author: Bill Jansse
Attributes: []Content: 
I'm replacing the PPC Leopard build slave with a dual 2GHz G5 machine...

Bill

