
============================================================================
Subject: [Python-Dev] issue 10296
Post Count: 1
Norm Emergent Posts: 0
Weight: 0.0


----------------------------------------
Subject:
[Python-Dev] issue 10296
----------------------------------------
Author: =?iso-8859-1?Q?Kristj=E1n_Valur_J=F3nsson?
Attributes: []Content: 
I have this defect here http://bugs.python.org/issue10296
ctypes catches BreakPoint error on windows 32
that I posted a while back and had no response to.  This is ctypes.  Would anyone care to take a look?
K
-------------- next part --------------
An HTML attachment was scrubbed...
URL: <http://mail.python.org/pipermail/python-dev/attachments/20101222/387e24bc/attachment.html>

