
============================================================================
Subject: [Python-Dev] [Python-checkins] cpython (merge 3.2 -> default):
 Fix memory leak with FLUFL-related syntax errors (!)
Post Count: 1
Norm Emergent Posts: 0
Weight: 0.0


----------------------------------------
Subject:
[Python-Dev] [Python-checkins] cpython (merge 3.2 -> default):
 Fix memory leak with FLUFL-related syntax errors (!)
----------------------------------------
Author: =?UTF-8?B?w4lyaWMgQXJhdWpv?
Attributes: []Content: 

I don?t think it is allowed to criticize FLUFL-related code.  As the
FLUFL is flawless, so are flufly things.  I hear the PSU has been
notified; a messenger will come t

