
============================================================================
Subject: [Python-Dev] devguide: Add Eric Snow.
Post Count: 1
Norm Emergent Posts: 0
Weight: 0.0


----------------------------------------
Subject:
[Python-Dev] devguide: Add Eric Snow.
----------------------------------------
Author: Antoine Pitro
Attributes: []Content: 
On Sun,  9 Sep 2012 09:11:08 +0200 (CEST)
georg.brandl <python-checkins at python.org> wrote:

Oops, sorry, I had forgotten to update the developers list.

Regards

Antoine.


-- 
Software development and contracting: http://pro.pitrou.net



