
============================================================================
Subject: [Python-Dev] The Meaning of Resolotion (Re: bug tracker
 permissions request)
Post Count: 1
Norm Emergent Posts: 0
Weight: 0.0


----------------------------------------
Subject:
[Python-Dev] The Meaning of Resolotion (Re: bug tracker
 permissions request)
----------------------------------------
Author: =?ISO-8859-1?Q?=22Martin_v=2E_L=F6wis=22?
Attributes: []Content: 

Probably for all of them. I don't understand languishing, though
(neither as an English word, nor as a status).


I have no idea.


I personally don't - I don't think it matters that much to have a
resolution field if you also post a message explaining why the issue was
closed. I'm just reporting what it was meant for originally.


Contributions welcome.

Regards,
Martin


