
============================================================================
Subject: [Python-Dev]
	=?utf-8?q?PEP_405_=28Python_Virtual_Environments=29_?=
	=?utf-8?q?and_Windows=09script_support?=
Post Count: 1
Norm Emergent Posts: 0
Weight: 0.0


----------------------------------------
Subject:
[Python-Dev]
	=?utf-8?q?PEP_405_=28Python_Virtual_Environments=29_?=
	=?utf-8?q?and_Windows=09script_support?=
----------------------------------------
Author: Vinay Saji
Attributes: []Content: 
Georg Brandl <g.brandl <at> gmx.net> writes:


I didn't put any of the #12394 functionality into the PEP 405 work that I
committed; the pysetup3.exe was data - the scripts that are installed to a venv
- and I just overlooked it. That has now been rectified in 01381723bc50 - the
.exe is gone.

Regards,

Vinay Sajip


