
============================================================================
Subject: [Python-Dev] cpython (2.6): Added tag v2.6.8rc2 for changeset
	bd9e1a02e3e3
Post Count: 1
Norm Emergent Posts: 0
Weight: 0.0


----------------------------------------
Subject:
[Python-Dev] cpython (2.6): Added tag v2.6.8rc2 for changeset
	bd9e1a02e3e3
----------------------------------------
Author: Georg Brand
Attributes: []Content: 
On 03/18/2012 12:15 AM, ?ric Araujo wrote:

I don't understand that argument: especially when there is no change in the tree
between the two tags.

Georg


