
============================================================================
Subject: [Python-Dev] [Python-checkins] devguide: Try to explain the two
 most common approaches to hg workflow: feature
Post Count: 1
Norm Emergent Posts: 0
Weight: 0.0


----------------------------------------
Subject:
[Python-Dev] [Python-checkins] devguide: Try to explain the two
 most common approaches to hg workflow: feature
----------------------------------------
Author: Brett Canno
Attributes: []Content: 
fixed

On Tue, Feb 8, 2011 at 14:27, Terry Reedy <tjreedy at udel.edu> wrote:

