
============================================================================
Subject: [Python-Dev] [Python-checkins] cpython: #6771: Move wrapper
 function into __init__ and eliminate wrapper module
Post Count: 1
Norm Emergent Posts: 0
Weight: 0.0


----------------------------------------
Subject:
[Python-Dev] [Python-checkins] cpython: #6771: Move wrapper
 function into __init__ and eliminate wrapper module
----------------------------------------
Author: Jim Jewet
Attributes: []Content: 
Does this really need to be a bare except?

On Sat, Jun 18, 2011 at 8:21 PM, r.david.murray
<python-checkins at python.org> wrote:

