
============================================================================
Subject: [Python-Dev] [Python-checkins] r87118 - in
 python/branches/py3k: Mac/BuildScript/build-installer.py Makefile.pre.in
Post Count: 1
Norm Emergent Posts: 0
Weight: 0.0


----------------------------------------
Subject:
[Python-Dev] [Python-checkins] r87118 - in
 python/branches/py3k: Mac/BuildScript/build-installer.py Makefile.pre.in
----------------------------------------
Author: =?UTF-8?B?w4lyaWMgQXJhdWpv?
Attributes: []Content: 
Hello,


Isn?t this a perfect use case for the new sysconfig module?

Regards


