
============================================================================
Subject: [Python-Dev] Codereview on bugs.python.org ready for testing
	again
Post Count: 1
Norm Emergent Posts: 0
Weight: 0.0


----------------------------------------
Subject:
[Python-Dev] Codereview on bugs.python.org ready for testing
	again
----------------------------------------
Author: Brian Curti
Attributes: []Content: 
On Mon, Mar 7, 2011 at 09:15, <skip at pobox.com> wrote:



The review was already created. Look to the left of the Remove button.
-------------- next part --------------
An HTML attachment was scrubbed...
URL: <http://mail.python.org/pipermail/python-dev/attachments/20110307/533f942b/attachment-0001.html>

