
============================================================================
Subject: [Python-Dev] Issue 6081: format string using mapping
 rather	than kwargs
Post Count: 1
Norm Emergent Posts: 0
Weight: 0.0


----------------------------------------
Subject:
[Python-Dev] Issue 6081: format string using mapping
 rather	than kwargs
----------------------------------------
Author: Eric Smit
Attributes: []Content: 
Filip Gruszczy?ski wrote:

I think this is basically my patch, with the method renamed, and needing 
tests.

