
============================================================================
Subject: [Python-Dev] [Email-SIG] email-6.0.0.a1
Post Count: 1
Norm Emergent Posts: 0
Weight: 0.0


----------------------------------------
Subject:
[Python-Dev] [Email-SIG] email-6.0.0.a1
----------------------------------------
Author: Barry Warsa
Attributes: []Content: 
On Jul 19, 2011, at 05:21 PM, R. David Murray wrote:


It'll take some time to digest, but congratulations RDM!  You've accomplished
an impressive milestone.

-Barry
-------------- next part --------------
A non-text attachment was scrubbed...
Name: signature.asc
Type: application/pgp-signature
Size: 836 bytes
Desc: not available
URL: <http://mail.python.org/pipermail/python-dev/attachments/20110719/4e1d2bf5/attachment-0001.pgp>

