
============================================================================
Subject: [Python-Dev] [Python-checkins] cpython: Issue #14581: Windows
 users are allowed to import modules w/o taking
Post Count: 1
Norm Emergent Posts: 0
Weight: 0.0


----------------------------------------
Subject:
[Python-Dev] [Python-checkins] cpython: Issue #14581: Windows
 users are allowed to import modules w/o taking
----------------------------------------
Author: Terry Reed
Attributes: []Content: 
On 4/20/2012 12:53 PM, brett.cannon wrote:


Should this be .rpartition in case there is more than one . in the name?

tjr

