
============================================================================
Subject: [Python-Dev] PyArg_ParseTupe(): parse unsigned integer and
	check for overflow
Post Count: 1
Norm Emergent Posts: 0
Weight: 0.0


----------------------------------------
Subject:
[Python-Dev] PyArg_ParseTupe(): parse unsigned integer and
	check for overflow
----------------------------------------
Author: Serhiy Storchak
Attributes: []Content: 
29.06.13 18:16, Nadeem Vawda ???????(??):

Definitely Argument Clinic should use converters for unsigned integers 
without wraparound by default.



