
============================================================================
Subject: [Python-Dev] cpython: Issue #16416: OS data are now always
 encoded/decoded to/from
Post Count: 1
Norm Emergent Posts: 0
Weight: 0.0


----------------------------------------
Subject:
[Python-Dev] cpython: Issue #16416: OS data are now always
 encoded/decoded to/from
----------------------------------------
Author: Antoine Pitro
Attributes: []Content: 
On Mon, 12 Nov 2012 23:03:45 +0100 (CET)
victor.stinner <python-checkins at python.org> wrote:

I believe you mean "OS X", not "OS".

Regards

Antoine.



