
============================================================================
Subject: [Python-Dev] [Python-checkins] cpython: Following issue #13390,
 fix compilation --without-pymalloc, and make
Post Count: 1
Norm Emergent Posts: 0
Weight: 0.0


----------------------------------------
Subject:
[Python-Dev] [Python-checkins] cpython: Following issue #13390,
 fix compilation --without-pymalloc, and make
----------------------------------------
Author: Andrew Svetlo
Attributes: []Content: 
Looks like Windows buildbots broken by this commit.

On Tue, Dec 18, 2012 at 12:07 AM, antoine.pitrou
<python-checkins at python.org> wrote:



-- 
Thanks,
Andrew Svetlov

