
============================================================================
Subject: [Python-Dev] bugs.python.org
Post Count: 2
Norm Emergent Posts: 0
Weight: 0.0


----------------------------------------
Subject:
[Python-Dev] bugs.python.org
----------------------------------------
Author: Mark Lawrenc
Attributes: []Content: 
Suffering from dead parrot syndrome?  Kiss of life please :)

Kindest regards.

Mark Lawrence.




----------------------------------------
Subject:
[Python-Dev] bugs.python.org
----------------------------------------
Author: R. David Murra
Attributes: []Content: 
On Mon, 23 Aug 2010 15:13:34 +0100, Mark Lawrence <breamoreboy at yahoo.co.uk> wrote:

The hosting company has been notified.

--David

