
============================================================================
Subject: [Python-Dev] r87946 - python/branches/py3k/Doc/howto/sorting.rst
Post Count: 1
Norm Emergent Posts: 0
Weight: 0.0


----------------------------------------
Subject:
[Python-Dev] r87946 - python/branches/py3k/Doc/howto/sorting.rst
----------------------------------------
Author: Antoine Pitro
Attributes: []Content: 
On Wed, 12 Jan 2011 00:05:56 +0100 (CET)
terry.reedy <python-checkins at python.org> wrote:

http://docs.python.org/dev/library/functools.html#functools.cmp_to_key




