
============================================================================
Subject: [Python-Dev]
 =?utf-8?q?=5BPython-checkins=5D_cpython_=282=2E7=29?=
 =?utf-8?q?=3A_=28Merge_3=2E1=29_Issue_=2312012=3A_ssl=2EPROTOCOL=5FSSLv2_?=
 =?utf-8?q?becomes_optional?=
Post Count: 1
Norm Emergent Posts: 0
Weight: 0.0


----------------------------------------
Subject:
[Python-Dev]
 =?utf-8?q?=5BPython-checkins=5D_cpython_=282=2E7=29?=
 =?utf-8?q?=3A_=28Merge_3=2E1=29_Issue_=2312012=3A_ssl=2EPROTOCOL=5FSSLv2_?=
 =?utf-8?q?becomes_optional?=
----------------------------------------
Author: =?UTF-8?Q?=C3=89ric_Araujo?
Attributes: []Content: 
 Le 10/05/2011 01:52, victor.stinner a ?crit :

 ?(Merge 3.1)? is inaccurate for 2.7.

 Regards

