
============================================================================
Subject: [Python-Dev] cpython: add generic implementation of a __dict__
 descriptor for C types
Post Count: 1
Norm Emergent Posts: 0
Weight: 0.0


----------------------------------------
Subject:
[Python-Dev] cpython: add generic implementation of a __dict__
 descriptor for C types
----------------------------------------
Author: Georg Brand
Attributes: []Content: 
Am 20.02.2012 02:04, schrieb benjamin.peterson:


versionadded, please?

Georg


