
============================================================================
Subject: [Python-Dev] moving issues from argparse tracker to python
	tracker?
Post Count: 1
Norm Emergent Posts: 0
Weight: 0.0


----------------------------------------
Subject:
[Python-Dev] moving issues from argparse tracker to python
	tracker?
----------------------------------------
Author: Antoine Pitro
Attributes: []Content: 
On Sun, 23 May 2010 20:52:19 -0700
Steven Bethard <steven.bethard at gmail.com> wrote:

Yes, I think this is desireable. You should also maintain argparse
directly in the Python SVN (even if you plan to do separate releases).

Regards

Antoine.



