
============================================================================
Subject: [Python-Dev] genious hack in python
Post Count: 3
Norm Emergent Posts: 0
Weight: 0.0


----------------------------------------
Subject:
[Python-Dev] genious hack in python
----------------------------------------
Author: Martin Goudrea
Attributes: []Content: 
Write Oleg,

If there is a better way to implemant this? sure. But the idea is still good.







----------------------------------------
Subject:
[Python-Dev] genious hack in python
----------------------------------------
Author: Martin Goudrea
Attributes: []Content: 
 Hello Dev Teem,

Guido told me to send you this idea...

Improving productivity is one of my Strength. Please check a very small
module i'v made for improving the debugger traceback. See the
pybettererror.py on sourceforge:
http://pybettererror.sourceforge.net/projet.html
It's hard to find something to complain about in python. This one was a too
good idea to keep for myself.

Thanks

Martin Goudreau from Montreal
-------------- next part --------------
An HTML attachment was scrubbed...
URL: <http://mail.python.org/pipermail/python-dev/attachments/20110923/0682cfc6/attachment.html>



----------------------------------------
Subject:
[Python-Dev] genious hack in python
----------------------------------------
Author: Oleg Broytma
Attributes: []Content: 
Hi!

On Fri, Sep 23, 2011 at 11:12:53AM -0400, Martin Goudreau wrote:

   Why do this in sys.stderr and not by monkey-patching traceback.py,
probably format_list and format_exception_only?

Oleg.
-- 
     Oleg Broytman            http://phdru.name/            phd at phdru.name
           Programmers don't die, they just GOSUB without RETURN.

