
============================================================================
Subject: [Python-Dev] r87399 - in python/branches/py3k:
 Doc/library/http.client.rst Doc/library/urllib.request.rst
 Lib/http/client.py Lib/test/test_httplib.py Lib/test/test_urllib2.py
 Lib/urllib/request.py Misc/NEWS
References: <20101219104952.EABC8EE9A9@mail.python.org>
Post Count: 1
Norm Emergent Posts: 0
Weight: 0.0


----------------------------------------
Subject:
[Python-Dev] r87399 - in python/branches/py3k:
 Doc/library/http.client.rst Doc/library/urllib.request.rst
 Lib/http/client.py Lib/test/test_httplib.py Lib/test/test_urllib2.py
 Lib/urllib/request.py Misc/NEWS
References: <20101219104952.EABC8EE9A9@mail.python.org>
----------------------------------------
Author: Antoine Pitro
Attributes: []Content: 

Hello Senthil,


Should be "bytes-like".


There is an operator precedence problem here:

'44444'



Why is this whole thing commented out? If it wasn't, you would have seen
the test failing.

Thanks

Antoine.



