
============================================================================
Subject: [Python-Dev] [Python-checkins] devguide: More miscellaneous
 review comments.
Post Count: 1
Norm Emergent Posts: 0
Weight: 0.0


----------------------------------------
Subject:
[Python-Dev] [Python-checkins] devguide: More miscellaneous
 review comments.
----------------------------------------
Author: =?UTF-8?B?w4lyaWMgQXJhdWpv?
Attributes: []Content: 
The non-non-Windows equivalent should be something like ?./python.exe
Tools/scripts/patchcheck.py? (I don?t remember if the leading ./ is
required).

FTR, what the make target is a bit more complicated:
?$(RUNSHARED) ./$(BUILDPYTHON) $(srcdir)/Tools/scripts/patchcheck.py?

Cheers

