
============================================================================
Subject: [Python-Dev] Absolute imports in Python 2.x?
Post Count: 1
Norm Emergent Posts: 0
Weight: 0.0


----------------------------------------
Subject:
[Python-Dev] Absolute imports in Python 2.x?
----------------------------------------
Author: Brett Canno
Attributes: []Content: 
On Wed, Feb 3, 2010 at 05:57, Nick Coghlan <ncoghlan at gmail.com> wrote:

Martin filled me in on how to add new versions, so when we need a new
one people can let me know.

-Brett



