
============================================================================
Subject: [Python-Dev] could gevent be apart the standard Python library in
	future ?
Post Count: 1
Norm Emergent Posts: 0
Weight: 0.0


----------------------------------------
Subject:
[Python-Dev] could gevent be apart the standard Python library in
	future ?
----------------------------------------
Author: =?ISO-8859-1?B?aU1hdGg=?
Attributes: []Content: 
Hi, 
It will be my first post here.
 
 
 
could gevent be apart  the standard Python library in future ?
-------------- next part --------------
An HTML attachment was scrubbed...
URL: <http://mail.python.org/pipermail/python-dev/attachments/20130403/008a9bdf/attachment.html>

