
============================================================================
Subject: [Python-Dev] [Python-checkins] r87504 - in
	python/branches/py3k: Doc/c-api/exceptions.rst
	Include/pyerrors.h Include/warnings.h
Post Count: 2
Norm Emergent Posts: 0
Weight: 0.0


----------------------------------------
Subject:
[Python-Dev] [Python-checkins] r87504 - in
	python/branches/py3k: Doc/c-api/exceptions.rst
	Include/pyerrors.h Include/warnings.h
----------------------------------------
Author: R. David Murra
Attributes: []Content: 
On Mon, 27 Dec 2010 02:49:27 +0100, victor.stinner <python-checkins at python.org> wrote:

ASCII-encoded string, or ASCII encoding-string?


So, the former, I'd guess :)

--
R. David Murray                                      www.bitdance.com



----------------------------------------
Subject:
[Python-Dev] [Python-checkins] r87504 - in
	python/branches/py3k: Doc/c-api/exceptions.rst
	Include/pyerrors.h Include/warnings.h
----------------------------------------
Author: R. David Murra
Attributes: []Content: 
On Tue, 28 Dec 2010 13:58:24 +0100, Victor Stinner <victor.stinner at haypocalc.com> wrote:

Yes, exactly.  Sorry for being a bit too subtle in my error report.

--
R. David Murray                                      www.bitdance.com

