
============================================================================
Subject: [Python-Dev]
 http://mail.python.org/pipermail/python-dev/2011-December/115172.html
Post Count: 1
Norm Emergent Posts: 0
Weight: 0.0


----------------------------------------
Subject:
[Python-Dev]
 http://mail.python.org/pipermail/python-dev/2011-December/115172.html
----------------------------------------
Author: Antoine Pitro
Attributes: []Content: 
On Mon, 02 Jan 2012 02:04:38 +0100
Christian Heimes <lists at cheimes.de> wrote:

Same here.

Regards

Antoine.



