
============================================================================
Subject: [Python-Dev] [Python-checkins] cpython: Remove outdated
 statements about threading and imports.
Post Count: 1
Norm Emergent Posts: 0
Weight: 0.0


----------------------------------------
Subject:
[Python-Dev] [Python-checkins] cpython: Remove outdated
 statements about threading and imports.
----------------------------------------
Author: Nick Coghla
Attributes: []Content: 
I know you fixed the deadlock problem, but the warnings about shutdown
misbehaviour are still valid.

--
Sent from my phone, thus the relative brevity :)
On May 18, 2012 9:59 PM, "antoine.pitrou" <python-checkins at python.org>
wrote:

-------------- next part --------------
An HTML attachment was scrubbed...
URL: <http://mail.python.org/pipermail/python-dev/attachments/20120518/c21950aa/attachment.html>

