
============================================================================
Subject: [Python-Dev] Fwd:  request._parse
Post Count: 1
Norm Emergent Posts: 0
Weight: 0.0


----------------------------------------
Subject:
[Python-Dev] Fwd:  request._parse
----------------------------------------
Author: Demian Brech
Attributes: []Content: 
Sounds good to me, thanks for the feedback.. Yes, I guess tackling
known issues is a much better use of time than trying to dig my own up
;)


