
============================================================================
Subject: [Python-Dev] pss (was: Generally bored by installation)
Post Count: 2
Norm Emergent Posts: 0
Weight: 0.0


----------------------------------------
Subject:
[Python-Dev] pss (was: Generally bored by installation)
----------------------------------------
Author: Oleg Broytma
Attributes: []Content: 
On Fri, Nov 16, 2012 at 05:34:37AM -0800, Eli Bendersky <eliben at gmail.com> wrote:

   Hardly. I am proficient in find+grep. And pss is underdocumented.

Oleg.
-- 
     Oleg Broytman            http://phdru.name/            phd at phdru.name
           Programmers don't die, they just GOSUB without RETURN.



----------------------------------------
Subject:
[Python-Dev] pss (was: Generally bored by installation)
----------------------------------------
Author: Eli Bendersk
Attributes: []Content: 
On Fri, Nov 16, 2012 at 6:25 AM, Oleg Broytman <phd at phdru.name> wrote:

Even reading https://bitbucket.org/eliben/pss/wiki/Usage#!usage-samplescombined
with the built-in help? If anything is missing, by all means let
me know and I'll gladly add it.

[Sorry for the offtopic, folks, promise it's short]

Eli
-------------- next part --------------
An HTML attachment was scrubbed...
URL: <http://mail.python.org/pipermail/python-dev/attachments/20121116/e256874c/attachment-0001.html>

