
============================================================================
Subject: [Python-Dev] PEP 429, Release Schedule for Python 3.4, posted
Post Count: 2
Norm Emergent Posts: 0
Weight: 0.0


----------------------------------------
Subject:
[Python-Dev] PEP 429, Release Schedule for Python 3.4, posted
----------------------------------------
Author: Larry Hasting
Attributes: []Content: 


It's essentially identical to the draft I posted last week--nothing new 
there.  Looking forward to February 2014!

And, to quote Barry Warsaw, let the wild rumpus begin!,


//arry/
-------------- next part --------------
An HTML attachment was scrubbed...
URL: <http://mail.python.org/pipermail/python-dev/attachments/20121017/63f1f820/attachment.html>



----------------------------------------
Subject:
[Python-Dev] PEP 429, Release Schedule for Python 3.4, posted
----------------------------------------
Author: Larry Hasting
Attributes: []Content: 

Should have posted a link, sorry.  Here you go:

    http://www.python.org/dev/peps/pep-0429/


//arry/

On 10/17/2012 04:12 PM, Larry Hastings wrote:

-------------- next part --------------
An HTML attachment was scrubbed...
URL: <http://mail.python.org/pipermail/python-dev/attachments/20121017/65a47d76/attachment.html>

