
============================================================================
Subject: [Python-Dev] [Python-checkins] cpython: Issue #11393: get more
 information on	assertion error	(test_faulthandler)
Post Count: 1
Norm Emergent Posts: 0
Weight: 0.0


----------------------------------------
Subject:
[Python-Dev] [Python-checkins] cpython: Issue #11393: get more
 information on	assertion error	(test_faulthandler)
----------------------------------------
Author: Victor Stinne
Attributes: []Content: 

Nope, I really want {{}}: the diff is on a template using to generate
Python code executed in a subprocess.

Victor


