
============================================================================
Subject: [Python-Dev] [Python-checkins] peps: PEP 421 is implemented.
Post Count: 1
Norm Emergent Posts: 0
Weight: 0.0


----------------------------------------
Subject:
[Python-Dev] [Python-checkins] peps: PEP 421 is implemented.
----------------------------------------
Author: Nick Coghla
Attributes: []Content: 
On Sat, May 26, 2012 at 5:14 PM, georg.brandl
<python-checkins at python.org> wrote:

Did you mean to move 405 instead? 421 is accepted, but not implemented yet.

Cheers,
Nick.

-- 
Nick Coghlan?? |?? ncoghlan at gmail.com?? |?? Brisbane, Australia

