
============================================================================
Subject: [Python-Dev] The ultimate question of life, the universe,
 and everything
Post Count: 1
Norm Emergent Posts: 0
Weight: 0.0


----------------------------------------
Subject:
[Python-Dev] The ultimate question of life, the universe,
 and everything
----------------------------------------
Author: =?ISO-8859-1?Q?=22Martin_v=2E_L=F6wis=22?
Attributes: []Content: 
Am 22.02.2012 19:46, schrieb Maciej Fijalkowski:

It was actually a C program - I doubt PyPy would have been faster.
Perhaps my algorithm wasn't good enough if you think this is slow.

Regards,
Martin

