
============================================================================
Subject: [Python-Dev] Python-Dev Digest, Vol 108, Issue 7
Post Count: 1
Norm Emergent Posts: 0
Weight: 0.0


----------------------------------------
Subject:
[Python-Dev] Python-Dev Digest, Vol 108, Issue 7
----------------------------------------
Author: N/A
Attributes: []Content: > Content-Type: text/plain; charset="iso-8859-1"; Format="flowed"
-------------- next part --------------
An HTML attachment was scrubbed...
URL: <http://mail.python.org/pipermail/python-dev/attachments/20120710/4dbfe67a/attachment.html>

