
============================================================================
Subject: [Python-Dev] [Python-checkins] devguide: Add instructions for
 handling merge conflicts during null merges.
Post Count: 1
Norm Emergent Posts: 0
Weight: 0.0


----------------------------------------
Subject:
[Python-Dev] [Python-checkins] devguide: Add instructions for
 handling merge conflicts during null merges.
----------------------------------------
Author: Chris Jerdone
Attributes: []Content: 
On Wed, Nov 21, 2012 at 6:07 PM, chris.jerdonek
<python-checkins at python.org> wrote:

This was for issue #16517:

http://bugs.python.org/issue16517

--Chris



