
============================================================================
Subject: [Python-Dev] [Python-checkins] r85481 - in
	python/branches/py3k: Misc/NEWS configure.in
Post Count: 1
Norm Emergent Posts: 0
Weight: 0.0


----------------------------------------
Subject:
[Python-Dev] [Python-checkins] r85481 - in
	python/branches/py3k: Misc/NEWS configure.in
----------------------------------------
Author: Brett Canno
Attributes: []Content: 
Doesn't autoconf need to be run to regenerate configure?

On Thu, Oct 14, 2010 at 08:24, matthias.klose
<python-checkins at python.org> wrote:

