
============================================================================
Subject: [Python-Dev] Is PyPI down?
Post Count: 2
Norm Emergent Posts: 0
Weight: 0.0


----------------------------------------
Subject:
[Python-Dev] Is PyPI down?
----------------------------------------
Author: MRA
Attributes: []Content: 
I can't get http://pypi.python.org and I've double-checked using
http://downforeveryoneorjustme.com/.



----------------------------------------
Subject:
[Python-Dev] Is PyPI down?
----------------------------------------
Author: Richard Jone
Attributes: []Content: 
The monitor said it went away at 23:50 UTC and came back 22 minutes
later at 00:12 UTC.


     Richard

On Wed, Dec 8, 2010 at 11:07 AM, MRAB <python at mrabarnett.plus.com> wrote:

