
============================================================================
Subject: [Python-Dev] FYI: Python 2.7.1 + gcc 4.6 (experimental)
 probable optimizer problem
Post Count: 3
Norm Emergent Posts: 0
Weight: 0.0


----------------------------------------
Subject:
[Python-Dev] FYI: Python 2.7.1 + gcc 4.6 (experimental)
 probable optimizer problem
----------------------------------------
Author: Antoine Pitro
Attributes: []Content: 
On Sat, 8 Jan 2011 12:03:35 -0800 (PST)
"Ralf W. Grosse-Kunstleve" <rwgk at yahoo.com> wrote:

You should report a bug with the gcc developers.
By the way, can you try to build Python 3.2 too?





----------------------------------------
Subject:
[Python-Dev] FYI: Python 2.7.1 + gcc 4.6 (experimental)
 probable optimizer problem
----------------------------------------
Author: =?ISO-8859-1?Q?=22Martin_v=2E_L=F6wis=22?
Attributes: []Content: 

Wild guess: did configure detect that it needs to use -fno-strict-aliasing?

Regards,
Martin



----------------------------------------
Subject:
[Python-Dev] FYI: Python 2.7.1 + gcc 4.6 (experimental)
 probable optimizer problem
----------------------------------------
Author: Daniel Stutzbac
Attributes: []Content: 
On Sat, Jan 8, 2011 at 12:03 PM, Ralf W. Grosse-Kunstleve <rwgk at yahoo.com>wrote:



Does that version of gcc emit any warnings during compilation?

-- 
Daniel Stutzbach
-------------- next part --------------
An HTML attachment was scrubbed...
URL: <http://mail.python.org/pipermail/python-dev/attachments/20110111/8cc27748/attachment.html>

