
============================================================================
Subject: [Python-Dev] PEP 420: Implicit Namespace Packages
Post Count: 1
Norm Emergent Posts: 0
Weight: 0.0


----------------------------------------
Subject:
[Python-Dev] PEP 420: Implicit Namespace Packages
----------------------------------------
Author: Eric V. Smit
Attributes: []Content: 
If you have any comments, please join the discussion over in import-sig.

Eric.

