
============================================================================
Subject: [Python-Dev] First draft of "sysconfig"
Post Count: 10
Norm Emergent Posts: 0
Weight: 0.0


----------------------------------------
Subject:
[Python-Dev] First draft of "sysconfig"
----------------------------------------
Author: =?ISO-8859-1?Q?Tarek_Ziad=E9?
Attributes: []Content: 
2009/12/23 Glyph Lefkowitz <glyph at twistedmatrix.com>:
[..]

Right, good idea

Tarek

-- 
Tarek Ziad? | http://ziade.org




----------------------------------------
Subject:
[Python-Dev] First draft of "sysconfig"
----------------------------------------
Author: =?ISO-8859-1?Q?Tarek_Ziad=E9?
Attributes: []Content: 
On Sat, Dec 12, 2009 at 9:02 PM, Tarek Ziad? <ziade.tarek at gmail.com> wrote:

I've applied the suggestions made in this thread.

If no one objects, here's what I am going to do now:

I'll merge this change in the trunk, (I'll drop the branch changesets
in favor of one single, clean changeset) and start to work on the
corresponding doc, so more people will be able to give some feedback
on the APIs once the second 2.7 alpha is out.

Then, in a second step, I'll work on the removal of the Makefile and
pyconfig.h dependencies by adding a _synconfig.py file as suggested
earlier, that will be created during the build process.

Regards,
Tarek




----------------------------------------
Subject:
[Python-Dev] First draft of "sysconfig"
----------------------------------------
Author: =?ISO-8859-1?Q?Tarek_Ziad=E9?
Attributes: []Content: 
2009/12/23 Glyph Lefkowitz <glyph at twistedmatrix.com>:
[..]

Right, good idea

Tarek

-- 
Tarek Ziad? | http://ziade.org




----------------------------------------
Subject:
[Python-Dev] First draft of "sysconfig"
----------------------------------------
Author: =?ISO-8859-1?Q?Tarek_Ziad=E9?
Attributes: []Content: 
On Sat, Dec 12, 2009 at 9:02 PM, Tarek Ziad? <ziade.tarek at gmail.com> wrote:

I've applied the suggestions made in this thread.

If no one objects, here's what I am going to do now:

I'll merge this change in the trunk, (I'll drop the branch changesets
in favor of one single, clean changeset) and start to work on the
corresponding doc, so more people will be able to give some feedback
on the APIs once the second 2.7 alpha is out.

Then, in a second step, I'll work on the removal of the Makefile and
pyconfig.h dependencies by adding a _synconfig.py file as suggested
earlier, that will be created during the build process.

Regards,
Tarek




----------------------------------------
Subject:
[Python-Dev] First draft of "sysconfig"
----------------------------------------
Author: =?ISO-8859-1?Q?Tarek_Ziad=E9?
Attributes: []Content: 
2009/12/23 Glyph Lefkowitz <glyph at twistedmatrix.com>:
[..]

Right, good idea

Tarek

-- 
Tarek Ziad? | http://ziade.org




----------------------------------------
Subject:
[Python-Dev] First draft of "sysconfig"
----------------------------------------
Author: =?ISO-8859-1?Q?Tarek_Ziad=E9?
Attributes: []Content: 
On Sat, Dec 12, 2009 at 9:02 PM, Tarek Ziad? <ziade.tarek at gmail.com> wrote:

I've applied the suggestions made in this thread.

If no one objects, here's what I am going to do now:

I'll merge this change in the trunk, (I'll drop the branch changesets
in favor of one single, clean changeset) and start to work on the
corresponding doc, so more people will be able to give some feedback
on the APIs once the second 2.7 alpha is out.

Then, in a second step, I'll work on the removal of the Makefile and
pyconfig.h dependencies by adding a _synconfig.py file as suggested
earlier, that will be created during the build process.

Regards,
Tarek




----------------------------------------
Subject:
[Python-Dev] First draft of "sysconfig"
----------------------------------------
Author: =?ISO-8859-1?Q?Tarek_Ziad=E9?
Attributes: []Content: 
2009/12/23 Glyph Lefkowitz <glyph at twistedmatrix.com>:
[..]

Right, good idea

Tarek

-- 
Tarek Ziad? | http://ziade.org




----------------------------------------
Subject:
[Python-Dev] First draft of "sysconfig"
----------------------------------------
Author: =?ISO-8859-1?Q?Tarek_Ziad=E9?
Attributes: []Content: 
On Sat, Dec 12, 2009 at 9:02 PM, Tarek Ziad? <ziade.tarek at gmail.com> wrote:

I've applied the suggestions made in this thread.

If no one objects, here's what I am going to do now:

I'll merge this change in the trunk, (I'll drop the branch changesets
in favor of one single, clean changeset) and start to work on the
corresponding doc, so more people will be able to give some feedback
on the APIs once the second 2.7 alpha is out.

Then, in a second step, I'll work on the removal of the Makefile and
pyconfig.h dependencies by adding a _synconfig.py file as suggested
earlier, that will be created during the build process.

Regards,
Tarek




----------------------------------------
Subject:
[Python-Dev] First draft of "sysconfig"
----------------------------------------
Author: =?ISO-8859-1?Q?Tarek_Ziad=E9?
Attributes: []Content: 
2009/12/23 Glyph Lefkowitz <glyph at twistedmatrix.com>:
[..]

Right, good idea

Tarek

-- 
Tarek Ziad? | http://ziade.org




----------------------------------------
Subject:
[Python-Dev] First draft of "sysconfig"
----------------------------------------
Author: =?ISO-8859-1?Q?Tarek_Ziad=E9?
Attributes: []Content: 
On Sat, Dec 12, 2009 at 9:02 PM, Tarek Ziad? <ziade.tarek at gmail.com> wrote:

I've applied the suggestions made in this thread.

If no one objects, here's what I am going to do now:

I'll merge this change in the trunk, (I'll drop the branch changesets
in favor of one single, clean changeset) and start to work on the
corresponding doc, so more people will be able to give some feedback
on the APIs once the second 2.7 alpha is out.

Then, in a second step, I'll work on the removal of the Makefile and
pyconfig.h dependencies by adding a _synconfig.py file as suggested
earlier, that will be created during the build process.

Regards,
Tarek


