
============================================================================
Subject: [Python-Dev] Official Roadmap (Re: Let's get PEP 380 into Python
	3.3)
Post Count: 1
Norm Emergent Posts: 0
Weight: 0.0


----------------------------------------
Subject:
[Python-Dev] Official Roadmap (Re: Let's get PEP 380 into Python
	3.3)
----------------------------------------
Author: anatoly techtoni
Attributes: []Content: 
On Sat, Feb 26, 2011 at 12:43 AM, Guido van Rossum <guido at python.org> wrote:

How about official RoadMap? There is no visibility into what's going
on in Python development. New people can' t jump in and help do bring
some features faster. http://dungeonhack.sourceforge.net/Roadmap

"yield from" seems useful.

-- 
anatoly t.

