
============================================================================
Subject: [Python-Dev] webbrowser no longer support 'internet-config' on Mac
Post Count: 1
Norm Emergent Posts: 0
Weight: 0.0


----------------------------------------
Subject:
[Python-Dev] webbrowser no longer support 'internet-config' on Mac
----------------------------------------
Author: Le
Attributes: []Content: 
The doc says supported as in
http://docs.python.org/library/webbrowser.html

but the code has been deleted in
http://hg.python.org/cpython/rev/66b3eda6283f

Leo


