
============================================================================
Subject: [Python-Dev] [Python-checkins] cpython (3.2): #14236: fix docs
	for \S.
Post Count: 1
Norm Emergent Posts: 0
Weight: 0.0


----------------------------------------
Subject:
[Python-Dev] [Python-checkins] cpython (3.2): #14236: fix docs
	for \S.
----------------------------------------
Author: Senthil Kumara
Attributes: []Content: 
On Sun, Apr 29, 2012 at 12:37:25PM +0200, ezio.melotti wrote:

Is this correct? While I understand what meant (or implied) \s is not
a valid ascii character in the documentation we denoted the sets using
ascii characters only.

-- 
Senthil

