
============================================================================
Subject: [Python-Dev] PPC Tiger buildbot going down for an upgrade
Post Count: 1
Norm Emergent Posts: 0
Weight: 0.0


----------------------------------------
Subject:
[Python-Dev] PPC Tiger buildbot going down for an upgrade
----------------------------------------
Author: Bill Jansse
Attributes: []Content: 
I've found a dual-processor G4 to run the PPC Tiger buildbot on (it's
currently an old e          Mac), and I plan to take this buildbot down tomorrow,
Wednesday, to upgrade.

Bill



