
============================================================================
Subject: [Python-Dev] [Python-checkins] r88140 - in
 python/branches/py3k: Misc/NEWS Modules/zipimport.c
Post Count: 1
Norm Emergent Posts: 0
Weight: 0.0


----------------------------------------
Subject:
[Python-Dev] [Python-checkins] r88140 - in
 python/branches/py3k: Misc/NEWS Modules/zipimport.c
----------------------------------------
Author: Victor Stinne
Attributes: []Content: 
Le samedi 22 janvier 2011 ? 13:25 -0500, Alexander Belopolsky a ?crit :

Woops, correct: fixed in r88145.

Victor


