
============================================================================
Subject: [Python-Dev] cpython: Undo the deprecation of _asdict().
Post Count: 1
Norm Emergent Posts: 0
Weight: 0.0


----------------------------------------
Subject:
[Python-Dev] cpython: Undo the deprecation of _asdict().
----------------------------------------
Author: Serhiy Storchak
Attributes: []Content: 
18.05.13 10:06, raymond.hettinger ???????(??):

Why?



