
============================================================================
Subject: [Python-Dev] PEP 409 - now properly formatted (sorry for the
 noise)
Post Count: 1
Norm Emergent Posts: 0
Weight: 0.0


----------------------------------------
Subject:
[Python-Dev] PEP 409 - now properly formatted (sorry for the
 noise)
----------------------------------------
Author: Ethan Furma
Attributes: []Content: 
What an appropriate title since I sent it to the wrong place.  :(

~Ethan~

