
============================================================================
Subject: [Python-Dev] tagging 3.1.2
Post Count: 2
Norm Emergent Posts: 0
Weight: 0.0


----------------------------------------
Subject:
[Python-Dev] tagging 3.1.2
----------------------------------------
Author: Benjamin Peterso
Attributes: []Content: 
My plan is to tag 3.1.2 sometime on Thursday, so binaries can be built
for the final release on Saturday. Agreeable?

-- 
Regards,
Benjamin



----------------------------------------
Subject:
[Python-Dev] tagging 3.1.2
----------------------------------------
Author: =?ISO-8859-1?Q?=22Martin_v=2E_L=F6wis=22?
Attributes: []Content: 
Benjamin Peterson wrote:

Fine with me.

Martin

