
============================================================================
Subject: [Python-Dev] Daily reference leaks (65c412586901): sum=0
Post Count: 3
Norm Emergent Posts: 0
Weight: 0.0


----------------------------------------
Subject:
[Python-Dev] Daily reference leaks (65c412586901): sum=0
----------------------------------------
Author: Georg Brand
Attributes: []Content: 
Am 04.08.2011 05:25, schrieb solipsis at pitrou.net:

Do we need this mail even if there are no leaks to report?

Georg




----------------------------------------
Subject:
[Python-Dev] Daily reference leaks (65c412586901): sum=0
----------------------------------------
Author: Nick Coghla
Attributes: []Content: 
On Thu, Aug 4, 2011 at 3:42 PM, Georg Brandl <g.brandl at gmx.net> wrote:

I find it useful in order to tell the difference between "no leaks to
report" and "refleak checking job is no longer running"

Cheers,
Nick.

-- 
Nick Coghlan?? |?? ncoghlan at gmail.com?? |?? Brisbane, Australia



----------------------------------------
Subject:
[Python-Dev] Daily reference leaks (65c412586901): sum=0
----------------------------------------
Author: Antoine Pitro
Attributes: []Content: 
On Thu, 4 Aug 2011 15:54:54 +1000
Nick Coghlan <ncoghlan at gmail.com> wrote:

That's exactly why I'm sending it every day :)

Regards

Antoine.



