
============================================================================
Subject: [Python-Dev] cpython: Implemented PEP 405 (Python virtual
	environments).
Post Count: 1
Norm Emergent Posts: 0
Weight: 0.0


----------------------------------------
Subject:
[Python-Dev] cpython: Implemented PEP 405 (Python virtual
	environments).
----------------------------------------
Author: Antoine Pitro
Attributes: []Content: 
On Sat, 26 May 2012 04:48:49 +0200
vinay.sajip <python-checkins at python.org> wrote:

What about pcbuild/amd64? Does this work on 64-bit builds?


Same question here.


I don't think there should be a shebang line in a test file.


Why the copyright boilerplate?


This needs to be updated.


[...]


Well... either the comment should be fixed or the class removed.



Same here.


What's this file and how was it compiled?

Regards

Antoine.



