
============================================================================
Subject: [Python-Dev] [Python-checkins] r84209 -
	python/branches/py3k/Python/ast.c
Post Count: 1
Norm Emergent Posts: 0
Weight: 0.0


----------------------------------------
Subject:
[Python-Dev] [Python-checkins] r84209 -
	python/branches/py3k/Python/ast.c
----------------------------------------
Author: Victor Stinne
Attributes: []Content: 
Le jeudi 19 ao?t 2010 19:43:15, amaury.forgeotdarc a ?crit :

Would it be possible to write tests for this change?

-- 
Victor Stinner
http://www.haypocalc.com/

