
============================================================================
Subject: [Python-Dev] [Python-checkins] cpython: Port code page codec to
	Unicode API.
Post Count: 1
Norm Emergent Posts: 0
Weight: 0.0


----------------------------------------
Subject:
[Python-Dev] [Python-checkins] cpython: Port code page codec to
	Unicode API.
----------------------------------------
Author: Victor Stinne
Attributes: []Content: 
Le vendredi 4 novembre 2011 18:23:26, martin.v.loewis a ?crit :

Oh please, try to avoid introducing tabs when a file uses spaces. All C files 
are supposed to use an indentation of 4 spaces.

Victor

