
============================================================================
Subject: [Python-Dev] cpython (3.2): Fix issue14826 - make
 urllib.request.Request quoted url consistent with
Post Count: 1
Norm Emergent Posts: 0
Weight: 0.0


----------------------------------------
Subject:
[Python-Dev] cpython (3.2): Fix issue14826 - make
 urllib.request.Request quoted url consistent with
----------------------------------------
Author: Antoine Pitro
Attributes: []Content: 

This means someone who already quotes URL will get a double escaping,
right?

Regards

Antoine.



