
============================================================================
Subject: [Python-Dev] [Python-checkins] r86750 -
 python/branches/py3k/Demo/curses/life.py
Post Count: 1
Norm Emergent Posts: 0
Weight: 0.0


----------------------------------------
Subject:
[Python-Dev] [Python-checkins] r86750 -
 python/branches/py3k/Demo/curses/life.py
----------------------------------------
Author: Senthil Kumara
Attributes: []Content: 
On Fri, Nov 26, 2010 at 02:32:43AM +0100, ?ric Araujo wrote:

I don't think it is required. Demo stuffs are usually fun
demonstrations. The contributor had added his name to patch in the
header, and I just left it like that. It's fine.

For features and important patches (subjective), Misc/{ACKS,NEWS} are
both added.


Good catch. Did not realize it because, we write it as colour too.
Changing it.

Thanks,
Senthil

