
============================================================================
Subject: [Python-Dev] Allow registered users to link bugs
Post Count: 1
Norm Emergent Posts: 0
Weight: 0.0


----------------------------------------
Subject:
[Python-Dev] Allow registered users to link bugs
----------------------------------------
Author: anatoly techtoni
Attributes: []Content: 
Can anybody remind me why we don't allow registered tracker users to
link dependent bugs between each other?
--
anatoly t.

