
============================================================================
Subject: [Python-Dev] What if replacing items in a dictionary returns
 the	new dictionary?
Post Count: 1
Norm Emergent Posts: 0
Weight: 0.0


----------------------------------------
Subject:
[Python-Dev] What if replacing items in a dictionary returns
 the	new dictionary?
----------------------------------------
Author: Mark Shanno
Attributes: []Content: 

Roy Hyunjin Han wrote:

Could you please post this to python-ideas, rather than python-dev
Python-dev is about aspects of the implementation,
not significant language changes.

Mark.

