
============================================================================
Subject: [Python-Dev]
	=?iso-8859-1?q?Enhanced_tracker_privileges_for_dange?=
	=?iso-8859-1?q?_rjim_to_do=09triage=2E?=
Post Count: 1
Norm Emergent Posts: 0
Weight: 0.0


----------------------------------------
Subject:
[Python-Dev]
	=?iso-8859-1?q?Enhanced_tracker_privileges_for_dange?=
	=?iso-8859-1?q?_rjim_to_do=09triage=2E?=
----------------------------------------
Author: Steven D'Apran
Attributes: []Content: 
On Wed, 28 Apr 2010 06:16:48 pm Stephen J. Turnbull wrote:

Thank you for clarifying your position.

I disagree with it, but at least now I understand it better.




-- 
Steven D'Aprano

