
============================================================================
Subject: [Python-Dev] [Python-checkins] r86300 - in
 python/branches/py3k: Misc/NEWS PC/winsound.c
Post Count: 1
Norm Emergent Posts: 0
Weight: 0.0


----------------------------------------
Subject:
[Python-Dev] [Python-checkins] r86300 - in
 python/branches/py3k: Misc/NEWS PC/winsound.c
----------------------------------------
Author: =?UTF-8?B?w4lyaWMgQXJhdWpv?
Attributes: []Content: 

Shouldn?t that be only one entry?

Regards


