
============================================================================
Subject: [Python-Dev] r84229 - in
 python/branches/py3k:	Doc/library/codecs.rst Lib/encodings/aliases.py
 Misc/NEWS
Post Count: 1
Norm Emergent Posts: 0
Weight: 0.0


----------------------------------------
Subject:
[Python-Dev] r84229 - in
 python/branches/py3k:	Doc/library/codecs.rst Lib/encodings/aliases.py
 Misc/NEWS
----------------------------------------
Author: M.-A. Lembur
Attributes: []Content: 
Georg Brandl wrote:

Where should that go ? Under the table somewhere ?


I've fixed that.

-- 
Marc-Andre Lemburg
eGenix.com

Professional Python Services directly from the Source  (#1, Aug 21 2010)
________________________________________________________________________

::: Try our new mxODBC.Connect Python Database Interface for free ! ::::


   eGenix.com Software, Skills and Services GmbH  Pastor-Loeh-Str.48
    D-40764 Langenfeld, Germany. CEO Dipl.-Math. Marc-Andre Lemburg
           Registered at Amtsgericht Duesseldorf: HRB 46611
               http://www.egenix.com/company/contact/

