
============================================================================
Subject: [Python-Dev] r87849 - python/branches/py3k/Lib/test/test_ssl.py
Post Count: 1
Norm Emergent Posts: 0
Weight: 0.0


----------------------------------------
Subject:
[Python-Dev] r87849 - python/branches/py3k/Lib/test/test_ssl.py
----------------------------------------
Author: Antoine Pitro
Attributes: []Content: 
On Sat,  8 Jan 2011 04:16:05 +0100 (CET)
victor.stinner <python-checkins at python.org> wrote:

You obviously need to update the certificate file and also the host
name above.




