
============================================================================
Subject: [Python-Dev] [Python-checkins] cpython (merge 3.3 -> default):
	merge 3.3
Post Count: 1
Norm Emergent Posts: 0
Weight: 0.0


----------------------------------------
Subject:
[Python-Dev] [Python-checkins] cpython (merge 3.3 -> default):
	merge 3.3
----------------------------------------
Author: Chris Jerdone
Attributes: []Content: 
On Fri, Oct 12, 2012 at 9:05 AM, benjamin.peterson
<python-checkins at python.org> wrote:

It looks like this check-in reverted previous valid work.

--Chris


