
============================================================================
Subject: [Python-Dev] creating Lib/tests/cmath_testcases.txt for 64 bit
	complex numbers
Post Count: 1
Norm Emergent Posts: 0
Weight: 0.0


----------------------------------------
Subject:
[Python-Dev] creating Lib/tests/cmath_testcases.txt for 64 bit
	complex numbers
----------------------------------------
Author: Matti Picu
Attributes: []Content: 
An HTML attachment was scrubbed...
URL: <http://mail.python.org/pipermail/python-dev/attachments/20120910/aa722412/attachment.html>

