
============================================================================
Subject: [Python-Dev] [Python-checkins] cpython: Update the What's New
 details for importlib based on doc/ABC changes.
Post Count: 1
Norm Emergent Posts: 0
Weight: 0.0


----------------------------------------
Subject:
[Python-Dev] [Python-checkins] cpython: Update the What's New
 details for importlib based on doc/ABC changes.
----------------------------------------
Author: Brett Canno
Attributes: []Content: 
Sorry about accidentally committing another minor cleanup to importlib in
this commit; thought I had already committed it separately.

On Thu, Aug 2, 2012 at 5:50 PM, brett.cannon <python-checkins at python.org>wrote:

-------------- next part --------------
An HTML attachment was scrubbed...
URL: <http://mail.python.org/pipermail/python-dev/attachments/20120802/ed7b8f7e/attachment.html>

