
============================================================================
Subject: [Python-Dev] Hello guys!
Post Count: 1
Norm Emergent Posts: 0
Weight: 0.0


----------------------------------------
Subject:
[Python-Dev] Hello guys!
----------------------------------------
Author: Jayme Proni Filh
Attributes: []Content: 
Hello guys!

Well, I'll do like welcome message of the python-dev-request ask.

I'm a brazilian C programmer and I'm learning how to programm in Python fast
because it is cool.
I installed python a few days ago in my notebook. So, I will be here
learning with you guys just watching you and your discussions about what it
is better for python's future for while and when I fell 100% sure about what
I have to post it here. I will.
I'm sorry about my English. That's my first time typing in English in a
important place.

See you guys!

---------------------------------------------------------------------------------------
Jayme Proni Filho
Skype: jaymeproni
Twitter: @jaymeproni
Phone: +55 - 17 - 3631 - 6576
Mobile: +55 - 17 - 9605 - 3560
e-Mail: jaymeproni at yahoo dot com dot br
---------------------------------------------------------------------------------------
-------------- next part --------------
An HTML attachment was scrubbed...
URL: <http://mail.python.org/pipermail/python-dev/attachments/20110423/04b98cd0/attachment.html>

