
============================================================================
Subject: [Python-Dev] Metadata: charset
Post Count: 1
Norm Emergent Posts: 0
Weight: 0.0


----------------------------------------
Subject:
[Python-Dev] Metadata: charset
----------------------------------------
Author: Oleg Broytma
Attributes: []Content: 
On Mon, Aug 02, 2010 at 12:11:06AM +0200, Tarek Ziad? wrote:

   Thank you for the clarification!

Oleg.
-- 
     Oleg Broytman            http://phd.pp.ru/            phd at phd.pp.ru
           Programmers don't die, they just GOSUB without RETURN.

