
============================================================================
Subject: [Python-Dev] [Python-checkins] cpython (merge 3.2 -> default):
 #11062: Fix adding a message from file to Babyl mailbox
Post Count: 1
Norm Emergent Posts: 0
Weight: 0.0


----------------------------------------
Subject:
[Python-Dev] [Python-checkins] cpython (merge 3.2 -> default):
 #11062: Fix adding a message from file to Babyl mailbox
----------------------------------------
Author: Andrew Svetlo
Attributes: []Content: 
Looks like it is the source of buildbot fail on Windows box.

On Wed, Aug 15, 2012 at 2:42 PM, petri.lehtinen
<python-checkins at python.org> wrote:



-- 
Thanks,
Andrew Svetlov

