
============================================================================
Subject: [Python-Dev] FWD: Windows 3.2.3 64 bit installers are actually 3.2
Post Count: 1
Norm Emergent Posts: 0
Weight: 0.0


----------------------------------------
Subject:
[Python-Dev] FWD: Windows 3.2.3 64 bit installers are actually 3.2
----------------------------------------
Author: Aah
Attributes: []Content: 
Note: I'm no-mail on python-dev

----- Forwarded message from Sean Johnson <seanjohnson08 at gmail.com> -----


----- End forwarded message -----

-- 
Aahz (aahz at pythoncraft.com)           <*>         http://www.pythoncraft.com/

https://en.wikipedia.org/wiki/Mary_Anning

