
============================================================================
Subject: [Python-Dev] Daily DMGs
Post Count: 1
Norm Emergent Posts: 0
Weight: 0.0


----------------------------------------
Subject:
[Python-Dev] Daily DMGs
----------------------------------------
Author: =?ISO-8859-1?Q?=22Martin_v=2E_L=F6wis=22?
Attributes: []Content: 
David Bolen and I started producing daily OSX installers, at

http://www.python.org/dev/daily-dmg/

If you find problems with these, please report them to bugs.python.org.

Regards,
Martin

