
============================================================================
Subject: [Python-Dev] devguide: Use -j0 to maximimze parallel execution.
Post Count: 2
Norm Emergent Posts: 0
Weight: 0.0


----------------------------------------
Subject:
[Python-Dev] devguide: Use -j0 to maximimze parallel execution.
----------------------------------------
Author: Georg Brand
Attributes: []Content: 
Am 24.01.2012 18:58, schrieb brett.cannon:

That only works on 3.3 though...

Georg





----------------------------------------
Subject:
[Python-Dev] devguide: Use -j0 to maximimze parallel execution.
----------------------------------------
Author: Brett Canno
Attributes: []Content: 
On Tue, Jan 24, 2012 at 13:52, Georg Brandl <g.brandl at gmx.net> wrote:


Bugger. I will add a note.
-------------- next part --------------
An HTML attachment was scrubbed...
URL: <http://mail.python.org/pipermail/python-dev/attachments/20120124/9038cec3/attachment.html>

