
============================================================================
Subject: [Python-Dev] cpython: Issue #18520: Add a new
 PyStructSequence_InitType2() function, same than
Post Count: 1
Norm Emergent Posts: 0
Weight: 0.0


----------------------------------------
Subject:
[Python-Dev] cpython: Issue #18520: Add a new
 PyStructSequence_InitType2() function, same than
----------------------------------------
Author: Antoine Pitro
Attributes: []Content: 
On Tue, 23 Jul 2013 08:22:30 +0200
Antoine Pitrou <solipsis at pitrou.net> wrote:


Ah, but I see that "minor release" was used in the sense of "feature
release". My bad. (Grrr!)

Regards

Antoine.



