
============================================================================
Subject: [Python-Dev] Python C API: Problem sending tuple to a method of a
	python Class
Post Count: 1
Norm Emergent Posts: 0
Weight: 0.0


----------------------------------------
Subject:
[Python-Dev] Python C API: Problem sending tuple to a method of a
	python Class
----------------------------------------
Author: pasparis at noos.f
Attributes: []Content: 
An HTML attachment was scrubbed...
URL: <http://mail.python.org/pipermail/python-dev/attachments/20120109/f8f2c5c6/attachment.html>

