
============================================================================
Subject: [Python-Dev] Docs of weak stdlib modules should
 encourage	exploration of 3rd-party alternatives
Post Count: 1
Norm Emergent Posts: 0
Weight: 0.0


----------------------------------------
Subject:
[Python-Dev] Docs of weak stdlib modules should
 encourage	exploration of 3rd-party alternatives
----------------------------------------
Author: Antoine Pitro
Attributes: []Content: 
On Wed, 14 Mar 2012 10:58:10 +0100
Stefan Krah <stefan at bytereef.org> wrote:

Well, can you please post a URL to the issue itself?

Thanks

Antoine.



