
============================================================================
Subject: [Python-Dev] [Python-checkins] r83596 - in
 python/branches/release26-maint: Doc/library/constants.rst
Post Count: 1
Norm Emergent Posts: 0
Weight: 0.0


----------------------------------------
Subject:
[Python-Dev] [Python-checkins] r83596 - in
 python/branches/release26-maint: Doc/library/constants.rst
----------------------------------------
Author: Ezio Melott
Attributes: []Content: 
  Hi,

On 03/08/2010 0.47, georg.brandl wrote:

this shouldn't be here.


Best Regards,
Ezio Melotti

