
============================================================================
Subject: [Python-Dev] [Python-checkins] cpython: update docstring per
 the extension package fix, refactor
Post Count: 1
Norm Emergent Posts: 0
Weight: 0.0


----------------------------------------
Subject:
[Python-Dev] [Python-checkins] cpython: update docstring per
 the extension package fix, refactor
----------------------------------------
Author: Eric Sno
Attributes: []Content: 
On Fri, Aug 10, 2012 at 2:17 PM, philip.jenvey
<python-checkins at python.org> wrote:

s/Return if/Return True if/

-eric

