
============================================================================
Subject: [Python-Dev] [Python-checkins] Daily reference leaks
	(979ae5972604): sum=30
Post Count: 1
Norm Emergent Posts: 0
Weight: 0.0


----------------------------------------
Subject:
[Python-Dev] [Python-checkins] Daily reference leaks
	(979ae5972604): sum=30
----------------------------------------
Author: Nick Coghla
Attributes: []Content: 
The timing of these new refleaks being triggered by test_os and by
test_posix is suspicious, making me think that #10812 is the likely
culprit.

Cheers,
Nick.

-- 
Nick Coghlan?? |?? ncoghlan at gmail.com?? |?? Brisbane, Australia

