
============================================================================
Subject: [Python-Dev] PEP 444 aka "Web3" (was Re: how to decide on a Python
 3 design for wsgiref)
Post Count: 1
Norm Emergent Posts: 0
Weight: 0.0


----------------------------------------
Subject:
[Python-Dev] PEP 444 aka "Web3" (was Re: how to decide on a Python
 3 design for wsgiref)
----------------------------------------
Author: Chris McDonoug
Attributes: []Content: 
This spec, a WSGI-like spec for Python2 and Python3 named Web3 was
accepted today as PEP 444.

http://python.org/dev/peps/pep-0444/

Comments and competing specs would be useful.

- C

On Wed, 2010-09-15 at 18:16 -0400, Chris McDonough wrote:



