
============================================================================
Subject: [Python-Dev] [Python-checkins] r88140 - in
	python/branches/py3k: Misc/NEWS Modules/zipimport.c
Post Count: 1
Norm Emergent Posts: 0
Weight: 0.0


----------------------------------------
Subject:
[Python-Dev] [Python-checkins] r88140 - in
	python/branches/py3k: Misc/NEWS Modules/zipimport.c
----------------------------------------
Author: Alexander Belopolsk
Attributes: []Content: 
On Sat, Jan 22, 2011 at 5:30 AM, victor.stinner
<python-checkins at python.org> wrote:
..

Shouldn't this be "instead of *cp437*"?

