
============================================================================
Subject: [Python-Dev]
	=?utf-8?q?Where_are_the_build_files_for_recent_winin?=
	=?utf-8?q?st-x=2Ey=2Eexe=09programs_in_packaging=3F?=
Post Count: 1
Norm Emergent Posts: 0
Weight: 0.0


----------------------------------------
Subject:
[Python-Dev]
	=?utf-8?q?Where_are_the_build_files_for_recent_winin?=
	=?utf-8?q?st-x=2Ey=2Eexe=09programs_in_packaging=3F?=
----------------------------------------
Author: Vinay Saji
Attributes: []Content: 
Vinay Sajip <vinay_sajip <at> yahoo.co.uk> writes:

Never mind, found the answer from closed issue 9818 - bdist_wininst.vcproj.


