
============================================================================
Subject: [Python-Dev] [Python-checkins] r84906 -
 python/branches/py3k/Doc/library/ssl.rst
Post Count: 1
Norm Emergent Posts: 0
Weight: 0.0


----------------------------------------
Subject:
[Python-Dev] [Python-checkins] r84906 -
 python/branches/py3k/Doc/library/ssl.rst
----------------------------------------
Author: Antoine Pitro
Attributes: []Content: 
On Tue, 21 Sep 2010 02:34:46 +0200
?ric Araujo <merwok at netwok.org> wrote:

Hmm, sorry? I don't get what you're talking about. You don't use
print() with plain sockets, so you shouldn't use it with SSL sockets
either.

Regards

Antoine.



