
============================================================================
Subject: [Python-Dev] bugs.python.org not responding (Was: rlcompleter
 -- auto-complete dictionary keys (+ tests))
Post Count: 1
Norm Emergent Posts: 0
Weight: 0.0


----------------------------------------
Subject:
[Python-Dev] bugs.python.org not responding (Was: rlcompleter
 -- auto-complete dictionary keys (+ tests))
----------------------------------------
Author: Valery Khameny
Attributes: []Content: 
Hi David,


done:
http://bugs.python.org/issue10351
http://bugs.python.org/issue10352

Albeit, as I can already see the situation with changes in 2.x trunk isn't
much simple.
I hope the patch won't go forgotten. (After all we here still rely very much
on 2.x)

regards,
Valery.
-------------- next part --------------
An HTML attachment was scrubbed...
URL: <http://mail.python.org/pipermail/python-dev/attachments/20101108/2616a27f/attachment.html>

