
============================================================================
Subject: [Python-Dev] [Python-checkins] cpython (2.7): Issue #12931:
 xmlrpclib now encodes Unicode URI to ISO-8859-1, instead of
Post Count: 1
Norm Emergent Posts: 0
Weight: 0.0


----------------------------------------
Subject:
[Python-Dev] [Python-checkins] cpython (2.7): Issue #12931:
 xmlrpclib now encodes Unicode URI to ISO-8859-1, instead of
----------------------------------------
Author: =?UTF-8?B?w4lyaWMgQXJhdWpv?
Attributes: []Content: 
Hi Victor,


Spaces around the modulo operator would have been nice here.
Readability counts :)

