
============================================================================
Subject: [Python-Dev] E3 BEFEHLE
Post Count: 2
Norm Emergent Posts: 0
Weight: 0.0


----------------------------------------
Subject:
[Python-Dev] E3 BEFEHLE
----------------------------------------
Author: Anand Balachandran Pilla
Attributes: []Content: 
On Sun, Jan 17, 2010 at 9:42 AM, Dj Gilcrease <digitalxero at gmail.com> wrote:


I initially thought it was  a Python disassembler trace of some step
of operations which failed, converted to German.

In fact, I was looking for a question at the end regarding REPL.
How very optimistic...





-- 
--Anand
-------------- next part --------------
An HTML attachment was scrubbed...
URL: <http://mail.python.org/pipermail/python-dev/attachments/20100120/5dd68498/attachment-0002.htm>



----------------------------------------
Subject:
[Python-Dev] E3 BEFEHLE
----------------------------------------
Author: Anand Balachandran Pilla
Attributes: []Content: 
On Sun, Jan 17, 2010 at 9:42 AM, Dj Gilcrease <digitalxero at gmail.com> wrote:


I initially thought it was  a Python disassembler trace of some step
of operations which failed, converted to German.

In fact, I was looking for a question at the end regarding REPL.
How very optimistic...





-- 
--Anand
-------------- next part --------------
An HTML attachment was scrubbed...
URL: <http://mail.python.org/pipermail/python-dev/attachments/20100120/5dd68498/attachment-0003.htm>

